solution/ejercicio_1/adder-4bit.vcd
$date
	Fri May  7 20:34:49 2021
$end
$version
	Icarus Verilog
$end
$timescale
	1ps
$end
$scope module top $end
$var wire 1 ! \$1 $end
$var wire 1 " \$3 $end
$var wire 1 # \$5 $end
$var wire 1 $ \$7 $end
$var wire 1 % \$9 $end
$var wire 4 & a__data [3:0] $end
$var wire 1 ' a__valid $end
$var wire 4 ( b__data [3:0] $end
$var wire 1 ) b__valid $end
$var wire 1 * clk $end
$var wire 1 + r__ready $end
$var wire 1 , rst $end
$var wire 5 - \$11 [4:0] $end
$var reg 1 . a__ready $end
$var reg 1 / b__ready $end
$var reg 5 0 r__data [4:0] $end
$var reg 5 1 \r__data$next [4:0] $end
$var reg 1 2 r__valid $end
$var reg 1 3 \r__valid$next $end
$upscope $end
$enddefinitions $end
#0
$dumpvars
03
02
b0 1
b0 0
x/
x.
bx -
1,
z+
1*
z)
bz (
z'
bz &
x%
0$
x#
x"
x!
$end
#5000
0*
#10000
1*
#15000
0*
#20000
1.
1/
13
b101 1
1%
1!
1"
1#
0,
1'
b101 -
b1 &
1)
b100 (
1*
#25000
0*
#30000
b111 1
b10 &
b111 -
b101 (
x$
12
b101 0
1*
#35000
0*
#40000
b0 1
03
b11 &
b1001 -
b110 (
1,
b111 0
1*
#45000
0*
#50000
0.
0/
0%
0!
0"
0#
0'
0)
0,
03
0$
b0 1
02
b0 0
1*
#55000
0*
#60000
1*
#60001
1,
#65001
0*
#70001
1*
#75001
0*
#80001
b101 1
1.
1/
13
1%
1!
1"
1#
0,
1'
1)
b101 -
b10 (
1+
1*
#85001
0*
#90001
b1 1
b1110 &
b1 -
b11 (
1$
12
b101 0
1*
#95001
0*
#100001
b11111 1
b11 &
b11111 -
b1100 (
b1 0
1*
#105001
0*
#110001
b11100 1
b1110 &
b11100 -
b1110 (
b11111 0
1*
#115001
0*
#120001
0.
0/
03
0%
0!
0"
0#
0'
0)
b11100 0
1*
#125001
0*
#130001
0$
02
1*
#130002
b0 1
1,
#135002
0*
#140002
b0 0
1*
#145002
0*
#150002
b1110 1
1.
1/
13
1%
1!
1"
1#
0,
1'
b111 &
1)
b1110 -
b111 (
1*
#155002
0*
#160002
b10000 1
b1000 &
b10000 -
b1000 (
1$
b1110 0
12
1*
#165002
0*
#170002
0.
0/
03
0%
0!
0"
0#
0'
0)
b10000 0
1*
#175002
0*
#180002
0$
02
1*
#180003
b0 1
1,
#185003
0*
#190003
b0 0
1*
#195003
0*
#200003
b10 1
1.
1/
13
1%
1!
1"
1#
0,
1'
b100 &
1)
b10 -
b1110 (
1*
#205003
0*
#210003
b1 1
b1 -
b11 &
1$
12
b10 0
1*
#215003
0*
#220003
b11110 1
b10 &
b11110 -
b1100 (
b1 0
1*
#225003
0*
#230003
b11001 1
b1 &
b11001 -
b1000 (
b11110 0
1*
#235003
0*
#240003
b11101 1
b10 &
b11101 -
b1011 (
b11001 0
1*
#245003
0*
#250003
b0 1
b1011 &
b0 -
b101 (
b11101 0
1*
#255003
0*
#260003
b10111 1
b1100 &
b10111 -
b1011 (
b0 0
1*
#265003
0*
#270003
b10110 1
b1101 &
b10110 -
b1001 (
b10111 0
1*
#275003
0*
#280003
b1000 1
b100 &
b1000 -
b100 (
b10110 0
1*
#285003
0*
#290003
b10 1
b0 &
b10 -
b10 (
b1000 0
1*
#295003
0*
#300003
b1001 1
b100 &
b1001 -
b101 (
b10 0
1*
#305003
0*
#310003
b11 1
b11 -
b1111 (
b1001 0
1*
#315003
0*
#320003
b11111 1
b10 &
b11111 -
b1101 (
b11 0
1*
#325003
0*
#330003
b11001 1
b0 &
b11001 -
b1001 (
b11111 0
1*
#335003
0*
#340003
b111 1
b10 &
b111 -
b101 (
b11001 0
1*
#345003
0*
#350003
b110 1
b11 &
b110 -
b11 (
b111 0
1*
#355003
0*
#360003
b11110 1
b110 &
b11110 -
b1000 (
b110 0
1*
#365003
0*
#370003
b11 1
b1101 &
b11 -
b110 (
b11110 0
1*
#375003
0*
#380003
b10110 1
b1110 &
b10110 -
b1000 (
b11 0
1*
#385003
0*
#390003
b11100 1
b1010 &
b11100 -
b10 (
b10110 0
1*
#395003
0*
#400003
b10 1
b1100 &
b10 -
b110 (
b11100 0
1*
#405003
0*
#410003
b11100 1
b11100 -
b0 (
b10 0
1*
#415003
0*
#420003
b1 1
b10 &
b1 -
b1111 (
b11100 0
1*
#425003
0*
#430003
b1001 1
b101 &
b1001 -
b100 (
b1 0
1*
#435003
0*
#440003
b11111 1
b1101 &
b11111 -
b10 (
b1001 0
1*
#445003
0*
#450003
b111 1
b111 -
b101 &
b11111 0
1*
#455003
0*
#460003
b10101 1
b1001 &
b10101 -
b1100 (
b111 0
1*
#465003
0*
#470003
b11101 1
b0 &
b11101 -
b1101 (
b10101 0
1*
#475003
0*
#480003
b11111 1
b1101 &
b11111 -
b10 (
b11101 0
1*
#485003
0*
#490003
b11 1
b110 &
b11 -
b1101 (
b11111 0
1*
#495003
0*
#500003
b10111 1
b1101 &
b10111 -
b1010 (
b11 0
1*
#505003
0*
#510003
b11001 1
b0 &
b11001 -
b1001 (
b10111 0
1*
#515003
0*
#520003
b0 1
b1011 &
b0 -
b101 (
b11001 0
1*
#525003
0*
#530003
b11111 1
b10 &
b11111 -
b1101 (
b0 0
1*
#535003
0*
#540003
b10 1
b10 -
b0 (
b11111 0
1*
#545003
0*
#550003
b11000 1
b1111 &
b11000 -
b1001 (
b10 0
1*
#555003
0*
#560003
b101 1
b0 &
b101 -
b101 (
b11000 0
1*
#565003
0*
#570003
b0 1
b1111 &
b0 -
b1 (
b101 0
1*
#575003
0*
#580003
b11 1
b1110 &
b11 -
b101 (
b0 0
1*
#585003
0*
#590003
b11110 1
b11110 -
b0 (
b11 0
1*
#595003
0*
#600003
b10100 1
b1011 &
b10100 -
b1001 (
b11110 0
1*
#605003
0*
#610003
b10111 1
b1010 &
b10111 -
b1101 (
b10100 0
1*
#615003
0*
#620003
b11010 1
b10 &
b11010 -
b1000 (
b10111 0
1*
#625003
0*
#630003
b0 1
b100 &
b0 -
b1100 (
b11010 0
1*
#635003
0*
#640003
b11110 1
b0 &
b11110 -
b1110 (
b0 0
1*
#645003
0*
#650003
b11011 1
b10 &
b11011 -
b1001 (
b11110 0
1*
#655003
0*
#660003
b11100 1
b1001 &
b11100 -
b11 (
b11011 0
1*
#665003
0*
#670003
b11111 1
b110 &
b11111 -
b1001 (
b11100 0
1*
#675003
0*
#680003
b11100 1
b1001 &
b11100 -
b11 (
b11111 0
1*
#685003
0*
#690003
b100 1
b0 &
b100 -
b100 (
b11100 0
1*
#695003
0*
#700003
b101 1
b110 &
b101 -
b1111 (
b100 0
1*
#705003
0*
#710003
b11101 1
b0 &
b11101 -
b1101 (
b101 0
1*
#715003
0*
#720003
b1 1
b110 &
b1 -
b1011 (
b11101 0
1*
#725003
0*
#730003
b0 1
b11 &
b0 -
b1101 (
b1 0
1*
#735003
0*
#740003
b10100 1
b1011 &
b10100 -
b1001 (
b0 0
1*
#745003
0*
#750003
b11100 1
b1001 &
b11100 -
b11 (
b10100 0
1*
#755003
0*
#760003
b1001 1
b11 &
b1001 -
b110 (
b11100 0
1*
#765003
0*
#770003
b11111 1
b10 &
b11111 -
b1101 (
b1001 0
1*
#775003
0*
#780003
b11000 1
b0 &
b11000 -
b1000 (
b11111 0
1*
#785003
0*
#790003
b11101 1
b1 &
b11101 -
b1100 (
b11000 0
1*
#795003
0*
#800003
b11001 1
b1000 &
b11001 -
b1 (
b11101 0
1*
#805003
0*
#810003
b11111 1
b1111 &
b11111 -
b0 (
b11001 0
1*
#815003
0*
#820003
b0 1
b1 &
b0 -
b1111 (
b11111 0
1*
#825003
0*
#830003
b10110 1
b1011 &
b10110 -
b1011 (
b0 0
1*
#835003
0*
#840003
b11011 1
b1110 &
b11011 -
b1101 (
b10110 0
1*
#845003
0*
#850003
b11 1
b101 &
b11 -
b1110 (
b11011 0
1*
#855003
0*
#860003
b101 1
b101 -
b0 (
b11 0
1*
#865003
0*
#870003
b11 1
b1110 &
b11 -
b101 (
b101 0
1*
#875003
0*
#880003
b0 1
b1111 &
b0 -
b1 (
b11 0
1*
#885003
0*
#890003
b10 1
b110 &
b10 -
b1100 (
b0 0
1*
#895003
0*
#900003
b11101 1
b0 &
b11101 -
b1101 (
b10 0
1*
#905003
0*
#910003
b1 1
b110 &
b1 -
b1011 (
b11101 0
1*
#915003
0*
#920003
b110 1
b100 &
b110 -
b10 (
b1 0
1*
#925003
0*
#930003
b0 1
b10 &
b0 -
b1110 (
b110 0
1*
#935003
0*
#940003
b110 &
b0 -
b1010 (
b0 0
1*
#945003
0*
#950003
b1011 1
b101 &
b1011 -
b110 (
1*
#955003
0*
#960003
b11110 1
b0 &
b11110 -
b1110 (
b1011 0
1*
#965003
0*
#970003
b1100 &
b11110 -
b10 (
b11110 0
1*
#975003
0*
#980003
b11101 1
b11101 -
b1 (
1*
#985003
0*
#990003
b0 1
b0 &
b0 -
b0 (
b11101 0
1*
#995003
0*
#1000003
b10 1
b100 &
b10 -
b1110 (
b0 0
1*
#1005003
0*
#1010003
b11000 1
b1100 &
b11000 -
b1100 (
b10 0
1*
#1015003
0*
#1020003
b11101 1
b1101 &
b11101 -
b0 (
b11000 0
1*
#1025003
0*
#1030003
b110 1
b10 &
b110 -
b100 (
b11101 0
1*
#1035003
0*
#1040003
b1 &
b110 -
b101 (
b110 0
1*
#1045003
0*
#1050003
b100 1
b1110 &
b100 -
b110 (
1*
#1055003
0*
#1060003
b11100 1
b1010 &
b11100 -
b10 (
b100 0
1*
#1065003
0*
#1070003
b11111 1
b1111 &
b11111 -
b0 (
b11100 0
1*
#1075003
0*
#1080003
b11101 1
b0 &
b11101 -
b1101 (
b11111 0
1*
#1085003
0*
#1090003
b11 1
b10 &
b11 -
b1 (
b11101 0
1*
#1095003
0*
#1100003
b11111 1
b110 &
b11111 -
b1001 (
b11 0
1*
#1105003
0*
#1110003
b100 1
b100 &
b100 -
b0 (
b11111 0
1*
#1115003
0*
#1120003
b10111 1
b1001 &
b10111 -
b1110 (
b100 0
1*
#1125003
0*
#1130003
b10100 1
b10100 -
b1011 (
b10111 0
1*
#1135003
0*
#1140003
b10 1
b1111 &
b10 -
b11 (
b10100 0
1*
#1145003
0*
#1150003
b11010 1
b1000 &
b11010 -
b10 (
b10 0
1*
#1155003
0*
#1160003
b10100 1
b10100 -
b1100 (
b11010 0
1*
#1165003
0*
#1170003
b11100 1
b1001 &
b11100 -
b11 (
b10100 0
1*
#1175003
0*
#1180003
b11000 1
b1100 &
b11000 -
b1100 (
b11100 0
1*
#1185003
0*
#1190003
b101 1
b110 &
b101 -
b1111 (
b11000 0
1*
#1195003
0*
#1200003
0.
0/
03
0%
0!
0"
0#
0'
0)
b101 0
1*
#1205003
0*
#1210003
0$
02
1*
#1210004
b0 1
1,
#1215004
0*
#1220004
b0 0
1*
#1225004
0*
#1230004
0,
1'
b10 -
b11 &
1*
