solution/ejercicio_1/adder-4bit.vcd
$date
	Mon May 10 00:09:02 2021
$end
$version
	Icarus Verilog
$end
$timescale
	1ps
$end
$scope module top $end
$var wire 1 ! \$1 $end
$var wire 1 " \$11 $end
$var wire 1 # \$13 $end
$var wire 1 $ \$3 $end
$var wire 1 % \$5 $end
$var wire 1 & \$7 $end
$var wire 1 ' \$9 $end
$var wire 4 ( a__data [3:0] $end
$var wire 1 ) a__valid $end
$var wire 4 * b__data [3:0] $end
$var wire 1 + b__valid $end
$var wire 1 , clk $end
$var wire 1 - r__ready $end
$var wire 1 . rst $end
$var wire 5 / \$15 [4:0] $end
$var reg 1 0 a__ready $end
$var reg 1 1 b__ready $end
$var reg 5 2 r__data [4:0] $end
$var reg 5 3 \r__data$next [4:0] $end
$var reg 1 4 r__valid $end
$var reg 1 5 \r__valid$next $end
$upscope $end
$enddefinitions $end
#0
$dumpvars
15
04
b101 3
b0 2
01
00
b101 /
0.
0-
1,
1+
b100 *
1)
b1 (
1'
0&
1%
0$
1#
0"
1!
$end
#5000
0,
#10000
14
b101 2
1,
#15000
0,
#20000
b0 3
05
1.
1,
#25000
0,
#30000
0.
15
b101 3
04
b0 2
1,
#35000
0,
#40000
b101 2
14
1,
#40001
b0 3
05
1.
#45001
0,
#50001
05
b0 3
04
b0 2
1,
#55001
0,
#60001
10
11
15
b101 3
1$
1&
0.
b11 (
b101 /
b10 *
1-
1,
#65001
0,
#70001
b1 3
b1110 (
b1 /
b11 *
1"
14
b101 2
1,
#75001
0,
#80001
b11111 3
b11 (
b11111 /
b1100 *
b1 2
1,
#85001
0,
#90001
b11100 3
b1110 (
b11100 /
b1110 *
b11111 2
1,
#95001
0,
#100001
00
01
05
0$
0&
0'
0#
0!
0%
0)
0+
b11100 2
1,
#105001
0,
#110001
0"
04
1,
#110002
b0 3
1.
#115002
0,
#120002
b0 2
1,
#125002
0,
#130002
10
11
b1110 3
1$
1&
15
1'
1#
1!
1%
0.
1)
b111 (
1+
b1110 /
b111 *
1,
#135002
0,
#140002
b10000 3
b1000 (
b10000 /
b1000 *
1"
b1110 2
14
1,
#145002
0,
#150002
00
01
05
0$
0&
0'
0#
0!
0%
0)
0+
b10000 2
1,
#155002
0,
#160002
0"
04
1,
#160003
b0 3
1.
#165003
0,
#170003
b0 2
1,
#175003
0,
#180003
10
11
b10111 3
1$
1&
15
1'
1#
1!
1%
0.
1)
b1110 (
1+
b10111 /
b1001 *
1,
#185003
0,
#190003
b11011 3
b1011 (
b11011 /
b0 *
1"
14
b10111 2
1,
#195003
0,
#200003
b11110 3
b1111 (
b11110 /
b1111 *
b11011 2
1,
#205003
0,
#210003
b10 3
b1110 (
b10 /
b100 *
b11110 2
1,
#215003
0,
#220003
b11001 3
b1010 (
b11001 /
b1111 *
b10 2
1,
#225003
0,
#230003
b11100 3
b1 (
b11100 /
b1011 *
b11001 2
1,
#235003
0,
#240003
b11101 3
b1100 (
b11101 /
b1 *
b11100 2
1,
#245003
0,
#250003
b11110 3
b100 (
b11110 /
b1010 *
b11101 2
1,
#255003
0,
#260003
b11101 3
b0 (
b11101 /
b1101 *
b11110 2
1,
#265003
0,
#270003
b0 3
b100 (
b0 /
b1100 *
b11101 2
1,
#275003
0,
#280003
b11010 3
b1000 (
b11010 /
b10 *
b0 2
1,
#285003
0,
#290003
b111 3
b11 (
b111 /
b100 *
b11010 2
1,
#295003
0,
#300003
b10101 3
b1011 (
b10101 /
b1010 *
b111 2
1,
#305003
0,
#310003
b10110 3
b1001 (
b10110 /
b1101 *
b10101 2
1,
#315003
0,
#320003
b11100 3
b11100 /
b1111 (
b10110 2
1,
#325003
0,
#330003
b11101 3
b100 (
b11101 /
b1001 *
b11100 2
1,
#335003
0,
#340003
b11111 3
b0 (
b11111 /
b1111 *
b11101 2
1,
#345003
0,
#350003
b11001 3
b1100 (
b11001 /
b1101 *
b11111 2
1,
#355003
0,
#360003
b110 3
b1 (
b110 /
b101 *
b11001 2
1,
#365003
0,
#370003
b10 3
b101 (
b10 /
b1101 *
b110 2
1,
#375003
0,
#380003
b0 3
b110 (
b0 /
b1010 *
b10 2
1,
#385003
0,
#390003
b11111 3
b1110 (
b11111 /
b1 *
b0 2
1,
#395003
0,
#400003
b10 3
b11 (
b10 /
b1111 *
b11111 2
1,
#405003
0,
#410003
b10100 3
b1001 (
b10100 /
b1011 *
b10 2
1,
#415003
0,
#420003
b1001 3
b11 (
b1001 /
b110 *
b10100 2
1,
#425003
0,
#430003
b10111 3
b1001 (
b10111 /
b1110 *
b1001 2
1,
#435003
0,
#440003
b11100 3
b10 (
b11100 /
b1010 *
b10111 2
1,
#445003
0,
#450003
b10110 3
b1101 (
b10110 /
b1001 *
b11100 2
1,
#455003
0,
#460003
b101 3
b0 (
b101 /
b101 *
b10110 2
1,
#465003
0,
#470003
b10110 3
b1001 (
b10110 /
b1101 *
b101 2
1,
#475003
0,
#480003
b10 3
b11 (
b10 /
b1111 *
b10110 2
1,
#485003
0,
#490003
b11110 3
b100 (
b11110 /
b1010 *
b10 2
1,
#495003
0,
#500003
b11001 3
b1000 (
b11001 /
b1 *
b11110 2
1,
#505003
0,
#510003
b11 3
b0 (
b11 /
b11 *
b11001 2
1,
#515003
0,
#520003
b11111 3
b1111 (
b11111 /
b0 *
b11 2
1,
#525003
0,
#530003
b1 3
b1100 (
b1 /
b101 *
b11111 2
1,
#535003
0,
#540003
b1000 3
b110 (
b1000 /
b10 *
b1 2
1,
#545003
0,
#550003
b11111 3
b101 (
b11111 /
b1010 *
b1000 2
1,
#555003
0,
#560003
b10 3
b11 (
b10 /
b1111 *
b11111 2
1,
#565003
0,
#570003
b11100 3
b1100 (
b11100 /
b0 *
b10 2
1,
#575003
0,
#580003
b11000 3
b1111 (
b11000 /
b1001 *
b11100 2
1,
#585003
0,
#590003
b11000 2
1,
#595003
0,
#600003
1,
#605003
0,
#610003
b10011 3
b1000 (
b10011 /
b1011 *
1,
#615003
0,
#620003
b11 3
b100 (
b11 /
b1111 *
b10011 2
1,
#625003
0,
#630003
b11100 3
b11100 /
b1000 *
b11 2
1,
#635003
0,
#640003
b11101 3
b11101 /
b1001 *
b11100 2
1,
#645003
0,
#650003
b11000 3
b1101 (
b11000 /
b1011 *
b11101 2
1,
#655003
0,
#660003
b11 3
b10 (
b11 /
b1 *
b11000 2
1,
#665003
0,
#670003
b1011 3
b110 (
b1011 /
b101 *
b11 2
1,
#675003
0,
#680003
b11001 3
b1010 (
b11001 /
b1111 *
b1011 2
1,
#685003
0,
#690003
b1 3
b1011 (
b1 /
b110 *
b11001 2
1,
#695003
0,
#700003
b10111 3
b1110 (
b10111 /
b1001 *
b1 2
1,
#705003
0,
#710003
b11111 3
b1001 (
b11111 /
b110 *
b10111 2
1,
#715003
0,
#720003
b10010 3
b1000 (
b10010 /
b1010 *
b11111 2
1,
#725003
0,
#730003
b11100 3
b11100 /
b100 *
b10010 2
1,
#735003
0,
#740003
b1111 (
b11100 /
b1101 *
b11100 2
1,
#745003
0,
#750003
b11110 3
b101 (
b11110 /
b1001 *
1,
#755003
0,
#760003
b11101 3
b1101 (
b11101 /
b0 *
b11110 2
1,
#765003
0,
#770003
b11010 3
b1001 (
b11010 /
b1 *
b11101 2
1,
#775003
0,
#780003
b11000 3
b1110 (
b11000 /
b1010 *
b11010 2
1,
#785003
0,
#790003
b101 3
b11 (
b101 /
b10 *
b11000 2
1,
#795003
0,
#800003
b10101 3
b1100 (
b10101 /
b1001 *
b101 2
1,
#805003
0,
#810003
b101 3
b1111 (
b101 /
b110 *
b10101 2
1,
#815003
0,
#820003
b10111 3
b1001 (
b10111 /
b1110 *
b101 2
1,
#825003
0,
#830003
b1000 3
b100 (
b1000 /
b100 *
b10111 2
1,
#835003
0,
#840003
b11101 3
b11101 /
b1001 *
b1000 2
1,
#845003
0,
#850003
b100 3
b1110 (
b100 /
b110 *
b11101 2
1,
#855003
0,
#860003
b11000 3
b1000 (
b11000 /
b0 *
b100 2
1,
#865003
0,
#870003
b100 3
b1 (
b100 /
b11 *
b11000 2
1,
#875003
0,
#880003
b11011 3
b10 (
b11011 /
b1001 *
b100 2
1,
#885003
0,
#890003
b11010 3
b1001 (
b11010 /
b1 *
b11011 2
1,
#895003
0,
#900003
b1011 3
b101 (
b1011 /
b110 *
b11010 2
1,
#905003
0,
#910003
b100 3
b0 (
b100 /
b100 *
b1011 2
1,
#915003
0,
#920003
b11011 3
b11011 /
b1011 *
b100 2
1,
#925003
0,
#930003
b11111 3
b11111 /
b1111 *
b11011 2
1,
#935003
0,
#940003
b11100 3
b1 (
b11100 /
b1011 *
b11111 2
1,
#945003
0,
#950003
b11110 3
b1011 (
b11110 /
b11 *
b11100 2
1,
#955003
0,
#960003
b11010 3
b1111 (
b11010 /
b1011 *
b11110 2
1,
#965003
0,
#970003
b11101 3
b100 (
b11101 /
b1001 *
b11010 2
1,
#975003
0,
#980003
b1 3
b1110 (
b1 /
b11 *
b11101 2
1,
#985003
0,
#990003
b11000 3
b0 (
b11000 /
b1000 *
b1 2
1,
#995003
0,
#1000003
b1 3
b1101 (
b1 /
b100 *
b11000 2
1,
#1005003
0,
#1010003
b0 3
b0 /
b11 *
b1 2
1,
#1015003
0,
#1020003
b11101 3
b10 (
b11101 /
b1011 *
b0 2
1,
#1025003
0,
#1030003
b11101 2
1,
#1035003
0,
#1040003
b10111 3
b1011 (
b10111 /
b1100 *
1,
#1045003
0,
#1050003
b10011 3
b1001 (
b10011 /
b1010 *
b10111 2
1,
#1055003
0,
#1060003
b11101 3
b11101 /
b11 (
b10011 2
1,
#1065003
0,
#1070003
b10101 3
b1101 (
b10101 /
b1000 *
b11101 2
1,
#1075003
0,
#1080003
b1 3
b1 /
b100 *
b10101 2
1,
#1085003
0,
#1090003
b0 3
b10 (
b0 /
b1110 *
b1 2
1,
#1095003
0,
#1100003
b11111 3
b101 (
b11111 /
b1010 *
b0 2
1,
#1105003
0,
#1110003
b11000 3
b1011 (
b11000 /
b1101 *
b11111 2
1,
#1115003
0,
#1120003
b11011 3
b1101 (
b11011 /
b1110 *
b11000 2
1,
#1125003
0,
#1130003
b100 3
b100 /
b110 (
b11011 2
1,
#1135003
0,
#1140003
b10011 3
b1000 (
b10011 /
b1011 *
b100 2
1,
#1145003
0,
#1150003
b1010 3
b100 (
b1010 /
b110 *
b10011 2
1,
#1155003
0,
#1160003
b11110 3
b1100 (
b11110 /
b10 *
b1010 2
1,
#1165003
0,
#1170003
b1 3
b11 (
b1 /
b1110 *
b11110 2
1,
#1175003
0,
#1180003
00
01
05
0$
0&
0'
0#
0!
0%
0)
0+
b1 2
1,
#1185003
0,
#1190003
0"
04
1,
#1190004
b0 3
1.
#1195004
0,
#1200004
b0 2
1,
#1205004
0,
#1210004
0.
1)
1,
#1215004
0,
#1220004
1,
#1225004
0,
#1230004
1,
#1235004
0,
#1240004
1,
#1245004
0,
#1250004
1,
#1255004
0,
#1260004
1,
#1265004
0,
#1270004
1,
#1275004
0,
#1280004
1,
#1285004
0,
#1290004
1,
#1295004
0,
#1300004
1,
#1305004
0,
#1310004
10
11
15
b101 3
1$
1&
1'
1#
1!
1%
1+
b101 /
b10 *
1,
#1315004
0,
#1320004
b1 3
b1110 (
b1 /
b11 *
1"
b101 2
14
1,
#1325004
0,
#1330004
b11111 3
b11 (
b11111 /
b1100 *
b1 2
1,
#1335004
0,
#1340004
b11100 3
b1110 (
b11100 /
b1110 *
b11111 2
1,
#1345004
0,
#1350004
00
01
05
0$
0&
0'
0#
0!
0%
0)
0+
b11100 2
1,
#1355004
0,
#1360004
0"
04
1,
#1360005
b0 3
1.
#1365005
0,
#1370005
b0 2
1,
#1375005
0,
#1380005
10
11
b101 3
1$
1&
15
1'
1#
1!
1%
0.
1)
b11 (
1+
b101 /
b10 *
1,
#1385005
0,
#1390005
b1 3
b1110 (
b1 /
b11 *
1"
14
b101 2
1,
#1395005
0,
#1400005
00
01
b11111 3
0"
0$
0&
b11 (
b11111 /
b1100 *
0-
b1 2
1,
#1405005
0,
#1410005
b11111 2
1,
#1415005
0,
#1420005
10
11
1"
1$
1&
1-
1,
#1425005
0,
#1430005
00
01
b11100 3
0"
0$
0&
b1110 (
b11100 /
b1110 *
0-
1,
#1435005
0,
#1440005
b11100 2
1,
#1445005
0,
#1450005
10
11
1"
1$
1&
1-
1,
#1455005
0,
#1460005
00
01
0'
0#
0!
0%
0"
0$
0&
0)
0+
0-
1,
#1465005
0,
#1470005
1,
#1475005
0,
#1480005
05
1"
1-
1,
#1485005
0,
#1490005
0-
0"
04
1,
