solution/ejercicio_1/adder-8bit.vcd
$date
	Fri May  7 10:37:04 2021
$end
$version
	Icarus Verilog
$end
$timescale
	1ps
$end
$scope module top $end
$var wire 1 ! \$1 $end
$var wire 1 " \$3 $end
$var wire 1 # \$5 $end
$var wire 1 $ \$7 $end
$var wire 1 % \$9 $end
$var wire 8 & a__data [7:0] $end
$var wire 1 ' a__valid $end
$var wire 8 ( b__data [7:0] $end
$var wire 1 ) b__valid $end
$var wire 1 * clk $end
$var wire 1 + r__ready $end
$var wire 1 , rst $end
$var wire 9 - \$11 [8:0] $end
$var reg 1 . a__ready $end
$var reg 1 / b__ready $end
$var reg 9 0 r__data [8:0] $end
$var reg 9 1 \r__data$next [8:0] $end
$var reg 1 2 r__valid $end
$var reg 1 3 \r__valid$next $end
$upscope $end
$enddefinitions $end
#0
$dumpvars
03
02
b0 1
b0 0
x/
x.
bx -
1,
z+
1*
z)
bz (
z'
bz &
x%
0$
x#
x"
x!
$end
#5000
0*
#10000
1*
#15000
0*
#20000
1.
1/
13
b101 1
1%
1!
1"
1#
0,
1'
b101 -
b1 &
1)
b100 (
1*
#25000
0*
#30000
b111 1
b10 &
b111 -
b101 (
x$
12
b101 0
1*
#35000
0*
#40000
b0 1
03
b11 &
b1001 -
b110 (
1,
b111 0
1*
#45000
0*
#50000
0.
0/
0%
0!
0"
0#
0'
0)
0,
03
0$
b0 1
02
b0 0
1*
#55000
0*
#60000
1*
#60001
1,
#65001
0*
#70001
1*
#75001
0*
#80001
b101 1
1.
1/
13
1%
1!
1"
1#
0,
1'
1)
b101 -
b10 (
1+
1*
#85001
0*
#90001
b1 1
b11111110 &
b1 -
b11 (
1$
12
b101 0
1*
#95001
0*
#100001
b111111111 1
b11 &
b111111111 -
b11111100 (
b1 0
1*
#105001
0*
#110001
b111111100 1
b11111110 &
b111111100 -
b11111110 (
b111111111 0
1*
#115001
0*
#120001
0.
0/
03
0%
0!
0"
0#
0'
0)
b111111100 0
1*
#125001
0*
#130001
0$
02
1*
#130002
b0 1
1,
#135002
0*
#140002
b0 0
1*
#145002
0*
#150002
b11111110 1
1.
1/
13
1%
1!
1"
1#
0,
1'
b1111111 &
1)
b11111110 -
b1111111 (
1*
#155002
0*
#160002
b100000000 1
b10000000 &
b100000000 -
b10000000 (
1$
b11111110 0
12
1*
#165002
0*
#170002
0.
0/
03
0%
0!
0"
0#
0'
0)
b100000000 0
1*
#175002
0*
#180002
0$
02
1*
#180003
b0 1
1,
#185003
0*
#190003
b0 0
1*
#195003
0*
#200003
b111101011 1
1.
1/
13
1%
1!
1"
1#
0,
1'
1)
b111101011 -
b1101011 (
1*
#205003
0*
#210003
b10000100 1
b101110 &
b10000100 -
b1010110 (
1$
12
b111101011 0
1*
#215003
0*
#220003
b100101 1
b100111 &
b100101 -
b11111110 (
b10000100 0
1*
#225003
0*
#230003
b10000 1
b11110000 &
b10000 -
b100000 (
b100101 0
1*
#235003
0*
#240003
b101110111 1
b10000100 &
b101110111 -
b11110011 (
b10000 0
1*
#245003
0*
#250003
b110101010 1
b11101001 &
b110101010 -
b11000001 (
b101110111 0
1*
#255003
0*
#260003
b100110 1
b11111010 &
b100110 -
b101100 (
b110101010 0
1*
#265003
0*
#270003
b111 1
b110100 &
b111 -
b11010011 (
b100110 0
1*
#275003
0*
#280003
b101010110 1
b11000001 &
b101010110 -
b10010101 (
b111 0
1*
#285003
0*
#290003
b111010100 1
b10100110 &
b111010100 -
b101110 (
b101010110 0
1*
#295003
0*
#300003
b110011000 1
b10010101 &
b110011000 -
b11 (
b111010100 0
1*
#305003
0*
#310003
b101110000 1
b10000101 &
b101110000 -
b11101011 (
b110011000 0
1*
#315003
0*
#320003
b111010000 1
b111100 &
b111010000 -
b10010100 (
b101110000 0
1*
#325003
0*
#330003
b100000101 1
b10000101 &
b100000101 -
b10000000 (
b111010000 0
1*
#335003
0*
#340003
b10010011 1
b1100101 &
b10010011 -
b101110 (
b100000101 0
1*
#345003
0*
#350003
b101111011 1
b10111111 &
b101111011 -
b10111100 (
b10010011 0
1*
#355003
0*
#360003
b1011110 1
b11110101 &
b1011110 -
b1101001 (
b101111011 0
1*
#365003
0*
#370003
b11 1
b10111100 &
b11 -
b1000111 (
b1011110 0
1*
#375003
0*
#380003
b110101100 1
b11010010 &
b110101100 -
b11011010 (
b11 0
1*
#385003
0*
#390003
b1000011 1
b1001 &
b1000011 -
b111010 (
b110101100 0
1*
#395003
0*
#400003
b111011011 1
b11010010 &
b111011011 -
b1001 (
b1000011 0
1*
#405003
0*
#410003
b101100 1
b111000 &
b101100 -
b11110100 (
b111011011 0
1*
#415003
0*
#420003
b111010111 1
b1110 &
b111010111 -
b11001001 (
b101100 0
1*
#425003
0*
#430003
b11011 1
b110001 &
b11011 -
b11101010 (
b111010111 0
1*
#435003
0*
#440003
b111001010 1
b1100 &
b111001010 -
b10111110 (
b11011 0
1*
#445003
0*
#450003
b111100001 1
b10011110 &
b111100001 -
b1000011 (
b111001010 0
1*
#455003
0*
#460003
b101011 1
b11000111 &
b101011 -
b1100100 (
b111100001 0
1*
#465003
0*
#470003
b111001 1
b111100 &
b111001 -
b11111101 (
b101011 0
1*
#475003
0*
#480003
b111000100 1
b11011110 &
b111000100 -
b11100110 (
b111001 0
1*
#485003
0*
#490003
b110000110 1
b11010000 &
b110000110 -
b10110110 (
b111000100 0
1*
#495003
0*
#500003
b110111010 1
b10111100 &
b110111010 -
b11111110 (
b110000110 0
1*
#505003
0*
#510003
b110011 1
b110100 &
b110011 -
b11111111 (
b110111010 0
1*
#515003
0*
#520003
b110111101 1
b10101100 &
b110111101 -
b10001 (
b110011 0
1*
#525003
0*
#530003
b101001 1
b11011011 &
b101001 -
b1001110 (
b110111101 0
1*
#535003
0*
#540003
b110111110 1
b11110010 &
b110111110 -
b11001100 (
b101001 0
1*
#545003
0*
#550003
b110111100 1
b11000010 &
b110111100 -
b11111010 (
b110111110 0
1*
#555003
0*
#560003
b100011101 1
b10011000 &
b100011101 -
b10000101 (
b110111100 0
1*
#565003
0*
#570003
b110100001 1
b10111010 &
b110100001 -
b11100111 (
b100011101 0
1*
#575003
0*
#580003
b110101011 1
b11100000 &
b110101011 -
b11001011 (
b110100001 0
1*
#585003
0*
#590003
b1100 1
b11110111 &
b1100 -
b10101 (
b110101011 0
1*
#595003
0*
#600003
b100100001 1
b10011110 &
b100100001 -
b10000011 (
b1100 0
1*
#605003
0*
#610003
b1110 1
b11 &
b1110 -
b1011 (
b100100001 0
1*
#615003
0*
#620003
b110100000 1
b11001111 &
b110100000 -
b11010001 (
b1110 0
1*
#625003
0*
#630003
b111011000 1
b1001100 &
b111011000 -
b10001100 (
b110100000 0
1*
#635003
0*
#640003
b11101 1
b111110 &
b11101 -
b11011111 (
b111011000 0
1*
#645003
0*
#650003
b101110001 1
b10010110 &
b101110001 -
b11011011 (
b11101 0
1*
#655003
0*
#660003
b100100 1
b11010 &
b100100 -
b1010 (
b101110001 0
1*
#665003
0*
#670003
b11011 1
b11001110 &
b11011 -
b1001101 (
b100100 0
1*
#675003
0*
#680003
b101111 1
b11101111 &
b101111 -
b1000000 (
b11011 0
1*
#685003
0*
#690003
b110011010 1
b11000111 &
b110011010 -
b11010011 (
b101111 0
1*
#695003
0*
#700003
b111100 1
b11001111 &
b111100 -
b1101101 (
b110011010 0
1*
#705003
0*
#710003
b11010010 1
b1101100 &
b11010010 -
b1100110 (
b111100 0
1*
#715003
0*
#720003
b111111010 1
b1111010 &
b111111010 -
b10000000 (
b11010010 0
1*
#725003
0*
#730003
b111100000 1
b10100110 &
b111100000 -
b111010 (
b111111010 0
1*
#735003
0*
#740003
b111111010 1
b1001000 &
b111111010 -
b10110010 (
b111100000 0
1*
#745003
0*
#750003
b11010 1
b1111110 &
b11010 -
b10011100 (
b111111010 0
1*
#755003
0*
#760003
b101 1
b1100101 &
b101 -
b10100000 (
b11010 0
1*
#765003
0*
#770003
b111010100 1
b1000101 &
b111010100 -
b10001111 (
b101 0
1*
#775003
0*
#780003
b1011001 1
b101101 &
b1011001 -
b101100 (
b111010100 0
1*
#785003
0*
#790003
b101001011 1
b10011101 &
b101001011 -
b10101110 (
b1011001 0
1*
#795003
0*
#800003
b111110011 1
b101 &
b111110011 -
b11101110 (
b101001011 0
1*
#805003
0*
#810003
b1110011 1
b100000 &
b1110011 -
b1010011 (
b111110011 0
1*
#815003
0*
#820003
b111000101 1
b100001 &
b111000101 -
b10100100 (
b1110011 0
1*
#825003
0*
#830003
b100111 1
b0 &
b100111 -
b100111 (
b111000101 0
1*
#835003
0*
#840003
b111110000 1
b110111 &
b111110000 -
b10111001 (
b100111 0
1*
#845003
0*
#850003
b111100010 1
b11111011 &
b111100010 -
b11100111 (
b111110000 0
1*
#855003
0*
#860003
b101011100 1
b10100110 &
b101011100 -
b10110110 (
b111100010 0
1*
#865003
0*
#870003
b111001011 1
b10011101 &
b111001011 -
b101110 (
b101011100 0
1*
#875003
0*
#880003
b10010 1
b10011100 &
b10010 -
b1110110 (
b111001011 0
1*
#885003
0*
#890003
b110001001 1
b11100111 &
b110001001 -
b10100010 (
b10010 0
1*
#895003
0*
#900003
b1011000 1
b110001 &
b1011000 -
b100111 (
b110001001 0
1*
#905003
0*
#910003
b111001111 1
b11100101 &
b111001111 -
b11101010 (
b1011000 0
1*
#915003
0*
#920003
b110110111 1
b101110 &
b110110111 -
b10001001 (
b111001111 0
1*
#925003
0*
#930003
b1011101 1
b1011000 &
b1011101 -
b101 (
b110110111 0
1*
#935003
0*
#940003
b111001111 1
b10001100 &
b111001111 -
b1000011 (
b1011101 0
1*
#945003
0*
#950003
b111110110 1
b101001 &
b111110110 -
b11001101 (
b111001111 0
1*
#955003
0*
#960003
b100011000 1
b10001001 &
b100011000 -
b10001111 (
b111110110 0
1*
#965003
0*
#970003
b111110011 1
b1011101 &
b111110011 -
b10010110 (
b100011000 0
1*
#975003
0*
#980003
b1010100 1
b11110000 &
b1010100 -
b1100100 (
b111110011 0
1*
#985003
0*
#990003
b111110111 1
b1011101 &
b111110111 -
b10011010 (
b1010100 0
1*
#995003
0*
#1000003
b110111001 1
b10100100 &
b110111001 -
b10101 (
b111110111 0
1*
#1005003
0*
#1010003
b111101 1
b11000000 &
b111101 -
b1111101 (
b110111001 0
1*
#1015003
0*
#1020003
b100110 1
b11010011 &
b100110 -
b1010011 (
b111101 0
1*
#1025003
0*
#1030003
b11001100 1
b1100101 &
b11001100 -
b1100111 (
b100110 0
1*
#1035003
0*
#1040003
b1001101 1
b1000011 &
b1001101 -
b1010 (
b11001100 0
1*
#1045003
0*
#1050003
b10111100 1
b1100000 &
b10111100 -
b1011100 (
b1001101 0
1*
#1055003
0*
#1060003
b110000010 1
b10010110 &
b110000010 -
b11101100 (
b10111100 0
1*
#1065003
0*
#1070003
b100110000 1
b100110000 -
b10011010 (
b110000010 0
1*
#1075003
0*
#1080003
b1000000 1
b11001000 &
b1000000 -
b1111000 (
b100110000 0
1*
#1085003
0*
#1090003
b1011111 1
b1111110 &
b1011111 -
b11100001 (
b1000000 0
1*
#1095003
0*
#1100003
b1101010 1
b1110100 &
b1101010 -
b11110110 (
b1011111 0
1*
#1105003
0*
#1110003
b10011100 1
b1111011 &
b10011100 -
b100001 (
b1101010 0
1*
#1115003
0*
#1120003
b1001100 1
b1100100 &
b1001100 -
b11101000 (
b10011100 0
1*
#1125003
0*
#1130003
b11010010 1
b1010110 &
b11010010 -
b1111100 (
b1001100 0
1*
#1135003
0*
#1140003
b10001001 1
b11000 &
b10001001 -
b1110001 (
b11010010 0
1*
#1145003
0*
#1150003
b1011110 1
b11100100 &
b1011110 -
b1111010 (
b10001001 0
1*
#1155003
0*
#1160003
b10000011 1
b110110 &
b10000011 -
b1001101 (
b1011110 0
1*
#1165003
0*
#1170003
b111111101 1
b11 &
b111111101 -
b11111010 (
b10000011 0
1*
#1175003
0*
#1180003
b1001011 1
b11111110 &
b1001011 -
b1001101 (
b111111101 0
1*
#1185003
0*
#1190003
b111111110 1
b11101 &
b111111110 -
b11100001 (
b1001011 0
1*
#1195003
0*
#1200003
0.
0/
03
0%
0!
0"
0#
0'
0)
b111111110 0
1*
#1205003
0*
#1210003
0$
02
1*
