solution/ejercicio_1/adder-16bit.vcd
$date
	Fri May  7 10:37:04 2021
$end
$version
	Icarus Verilog
$end
$timescale
	1ps
$end
$scope module top $end
$var wire 1 ! \$1 $end
$var wire 1 " \$3 $end
$var wire 1 # \$5 $end
$var wire 1 $ \$7 $end
$var wire 1 % \$9 $end
$var wire 16 & a__data [15:0] $end
$var wire 1 ' a__valid $end
$var wire 16 ( b__data [15:0] $end
$var wire 1 ) b__valid $end
$var wire 1 * clk $end
$var wire 1 + r__ready $end
$var wire 1 , rst $end
$var wire 17 - \$11 [16:0] $end
$var reg 1 . a__ready $end
$var reg 1 / b__ready $end
$var reg 17 0 r__data [16:0] $end
$var reg 17 1 \r__data$next [16:0] $end
$var reg 1 2 r__valid $end
$var reg 1 3 \r__valid$next $end
$upscope $end
$enddefinitions $end
#0
$dumpvars
03
02
b0 1
b0 0
x/
x.
bx -
1,
z+
1*
z)
bz (
z'
bz &
x%
0$
x#
x"
x!
$end
#5000
0*
#10000
1*
#15000
0*
#20000
1.
1/
13
b101 1
1%
1!
1"
1#
0,
1'
b101 -
b1 &
1)
b100 (
1*
#25000
0*
#30000
b111 1
b10 &
b111 -
b101 (
x$
12
b101 0
1*
#35000
0*
#40000
b0 1
03
b11 &
b1001 -
b110 (
1,
b111 0
1*
#45000
0*
#50000
0.
0/
0%
0!
0"
0#
0'
0)
0,
03
0$
b0 1
02
b0 0
1*
#55000
0*
#60000
1*
#60001
1,
#65001
0*
#70001
1*
#75001
0*
#80001
b101 1
1.
1/
13
1%
1!
1"
1#
0,
1'
1)
b101 -
b10 (
1+
1*
#85001
0*
#90001
b1 1
b1111111111111110 &
b1 -
b11 (
1$
12
b101 0
1*
#95001
0*
#100001
b11111111111111111 1
b11 &
b11111111111111111 -
b1111111111111100 (
b1 0
1*
#105001
0*
#110001
b11111111111111100 1
b1111111111111110 &
b11111111111111100 -
b1111111111111110 (
b11111111111111111 0
1*
#115001
0*
#120001
0.
0/
03
0%
0!
0"
0#
0'
0)
b11111111111111100 0
1*
#125001
0*
#130001
0$
02
1*
#130002
b0 1
1,
#135002
0*
#140002
b0 0
1*
#145002
0*
#150002
b1111111111111110 1
1.
1/
13
1%
1!
1"
1#
0,
1'
b111111111111111 &
1)
b1111111111111110 -
b111111111111111 (
1*
#155002
0*
#160002
b10000000000000000 1
b1000000000000000 &
b10000000000000000 -
b1000000000000000 (
1$
b1111111111111110 0
12
1*
#165002
0*
#170002
0.
0/
03
0%
0!
0"
0#
0'
0)
b10000000000000000 0
1*
#175002
0*
#180002
0$
02
1*
#180003
b0 1
1,
#185003
0*
#190003
b0 0
1*
#195003
0*
#200003
b1001011000010111 1
1.
1/
13
1%
1!
1"
1#
0,
1'
b111100111001000 &
1)
b1001011000010111 -
b1110001001111 (
1*
#205003
0*
#210003
b101110111000011 1
b1110010110110 &
b101110111000011 -
b100000100001101 (
1$
12
b1001011000010111 0
1*
#215003
0*
#220003
b1010011001111000 1
b10100010110110 &
b1010011001111000 -
b111110111000010 (
b101110111000011 0
1*
#225003
0*
#230003
b11100111111000111 1
b1111111110110000 &
b11100111111000111 -
b1101000000010111 (
b1010011001111000 0
1*
#235003
0*
#240003
b100110101011 1
b1110111001001111 &
b100110101011 -
b1101101011100 (
b11100111111000111 0
1*
#245003
0*
#250003
b11010111110101 1
b1100001010011101 &
b11010111110101 -
b111001101011000 (
b100110101011 0
1*
#255003
0*
#260003
b10010011111110000 1
b1010001010011010 &
b10010011111110000 -
b1000010101010110 (
b11010111110101 0
1*
#265003
0*
#270003
b10101001101111 1
b1101010000001011 &
b10101001101111 -
b101011001100100 (
b10010011111110000 0
1*
#275003
0*
#280003
b1010100000110111 1
b11110000111000 &
b1010100000110111 -
b110101111111111 (
b10101001101111 0
1*
#285003
0*
#290003
b1011111111111101 1
b111011000101010 &
b1011111111111101 -
b100100111010011 (
b1010100000110111 0
1*
#295003
0*
#300003
b10000111010100 1
b11010101000111 &
b10000111010100 -
b1110110010001101 (
b1011111111111101 0
1*
#305003
0*
#310003
b11100100110011001 1
b10110010100100 &
b11100100110011001 -
b1001110011110101 (
b10000111010100 0
1*
#315003
0*
#320003
b1001110100111101 1
b11100010101011 &
b1001110100111101 -
b110010010010010 (
b11100100110011001 0
1*
#325003
0*
#330003
b1011001010000010 1
b100000111011011 &
b1011001010000010 -
b111000010100111 (
b1001110100111101 0
1*
#335003
0*
#340003
b11101011000110111 1
b10101011011101 &
b11101011000110111 -
b1010101101011010 (
b1011001010000010 0
1*
#345003
0*
#350003
b1010011111101011 1
b101001010101010 &
b1010011111101011 -
b101010101000001 (
b11101011000110111 0
1*
#355003
0*
#360003
b11000001101001011 1
b1110001110010110 &
b11000001101001011 -
b1001111110110101 (
b1010011111101011 0
1*
#365003
0*
#370003
b11011110101101000 1
b1000111011010110 &
b11011110101101000 -
b10111010010010 (
b11000001101001011 0
1*
#375003
0*
#380003
b10100111001010111 1
b1001010110111101 &
b10100111001010111 -
b1011100010011010 (
b11011110101101000 0
1*
#385003
0*
#390003
b1101101010000 1
b100000000101 &
b1101101010000 -
b1001101001011 (
b10100111001010111 0
1*
#395003
0*
#400003
b10110100101001111 1
b1000011010011001 &
b10110100101001111 -
b1110001010110110 (
b1101101010000 0
1*
#405003
0*
#410003
b10110100010011110 1
b1000101010111110 &
b10110100010011110 -
b1101110111100000 (
b10110100101001111 0
1*
#415003
0*
#420003
b11111110100011111 1
b1000101001100001 &
b11111110100011111 -
b111001010111110 (
b10110100010011110 0
1*
#425003
0*
#430003
b11110011010010100 1
b1100001111111000 &
b11110011010010100 -
b10001010011100 (
b11111110100011111 0
1*
#435003
0*
#440003
b10010011110001001 1
b1000110110011110 &
b10010011110001001 -
b1001100111101011 (
b11110011010010100 0
1*
#445003
0*
#450003
b11110101011000110 1
b1110010010111111 &
b11110101011000110 -
b11000000111 (
b10010011110001001 0
1*
#455003
0*
#460003
b100110100000 1
b1000101101011 &
b100110100000 -
b1111100000110101 (
b11110101011000110 0
1*
#465003
0*
#470003
b11101100011001011 1
b1010100101001101 &
b11101100011001011 -
b10111101111110 (
b100110100000 0
1*
#475003
0*
#480003
b11001000111001100 1
b1110010110010111 &
b11001000111001100 -
b1010110000110101 (
b11101100011001011 0
1*
#485003
0*
#490003
b10110000001101011 1
b1101101110110010 &
b10110000001101011 -
b1000010010111001 (
b11001000111001100 0
1*
#495003
0*
#500003
b10111111000101101 1
b1010100011000111 &
b10111111000101101 -
b1101010101100110 (
b10110000001101011 0
1*
#505003
0*
#510003
b11000001001011101 1
b1110110111001111 &
b11000001001011101 -
b1001010010001110 (
b10111111000101101 0
1*
#515003
0*
#520003
b1000001110010 1
b1001100011110100 &
b1000001110010 -
b111011101111110 (
b11000001001011101 0
1*
#525003
0*
#530003
b1011111101010111 1
b110001001011110 &
b1011111101010111 -
b101110011111001 (
b1000001110010 0
1*
#535003
0*
#540003
b1001010011100101 1
b101110111000111 &
b1001010011100101 -
b11011100011110 (
b1011111101010111 0
1*
#545003
0*
#550003
b10111000110011110 1
b1010001010110101 &
b10111000110011110 -
b1100111011101001 (
b1001010011100101 0
1*
#555003
0*
#560003
b11100101011001101 1
b1110101111101101 &
b11100101011001101 -
b1101111011100000 (
b10111000110011110 0
1*
#565003
0*
#570003
b11010000010010010 1
b1010011110001011 &
b11010000010010010 -
b1111100100000111 (
b11100101011001101 0
1*
#575003
0*
#580003
b11100011111100 1
b1110100010110001 &
b11100011111100 -
b101000001001011 (
b11010000010010010 0
1*
#585003
0*
#590003
b101011000110001 1
b1101101101010000 &
b101011000110001 -
b111101011100001 (
b11100011111100 0
1*
#595003
0*
#600003
b1110111000111001 1
b111100111101100 &
b1110111000111001 -
b111010001001101 (
b101011000110001 0
1*
#605003
0*
#610003
b11011000001111110 1
b1100000000101111 &
b11011000001111110 -
b1111000001001111 (
b1110111000111001 0
1*
#615003
0*
#620003
b11010111000000001 1
b1000001111001 &
b11010111000000001 -
b1001110110001000 (
b11011000001111110 0
1*
#625003
0*
#630003
b11111101111011011 1
b1011101101111110 &
b11111101111011011 -
b100000001011101 (
b11010111000000001 0
1*
#635003
0*
#640003
b101111110001 1
b1010101101000000 &
b101111110001 -
b110000010110001 (
b11111101111011011 0
1*
#645003
0*
#650003
b1001101111111101 1
b11100010101111 &
b1001101111111101 -
b110001101001110 (
b101111110001 0
1*
#655003
0*
#660003
b11000111010011110 1
b11101000001 &
b11000111010011110 -
b1000011101011101 (
b1001101111111101 0
1*
#665003
0*
#670003
b11111001110000011 1
b1001001011000001 &
b11111001110000011 -
b110000011000010 (
b11000111010011110 0
1*
#675003
0*
#680003
b11010010101010101 1
b1000010011110100 &
b11010010101010101 -
b10000001100001 (
b11111001110000011 0
1*
#685003
0*
#690003
b11011111011111010 1
b10001111111011 &
b11011111011111010 -
b1001101011111111 (
b11010010101010101 0
1*
#695003
0*
#700003
b11111010101010001 1
b1001101010000011 &
b11111010101010001 -
b101101011001110 (
b11011111011111010 0
1*
#705003
0*
#710003
b1110010101110 1
b10110011110100 &
b1110010101110 -
b1110111110111010 (
b11111010101010001 0
1*
#715003
0*
#720003
b111110010101000 1
b10101011101001 &
b111110010101000 -
b101000110111111 (
b1110010101110 0
1*
#725003
0*
#730003
b1000001011011101 1
b111111110000011 &
b1000001011011101 -
b1101011010 (
b111110010101000 0
1*
#735003
0*
#740003
b101101111001 1
b1010100001111110 &
b101101111001 -
b110001011111011 (
b1000001011011101 0
1*
#745003
0*
#750003
b11110101101000010 1
b110011101011010 &
b11110101101000010 -
b1000001111101000 (
b101101111001 0
1*
#755003
0*
#760003
b10010111110010011 1
b1010101101111001 &
b10010111110010011 -
b1000010000011010 (
b11110101101000010 0
1*
#765003
0*
#770003
b11000110100000011 1
b1001000001001111 &
b11000110100000011 -
b1111110010110100 (
b10010111110010011 0
1*
#775003
0*
#780003
b10101101000 1
b1010100111001010 &
b10101101000 -
b101101110011110 (
b11000110100000011 0
1*
#785003
0*
#790003
b11001101100000011 1
b1001110001010110 &
b11001101100000011 -
b1111111010101101 (
b10101101000 0
1*
#795003
0*
#800003
b110101011100110 1
b1111010011001011 &
b110101011100110 -
b111011000011011 (
b11001101100000011 0
1*
#805003
0*
#810003
b11000000101110010 1
b1111101011110011 &
b11000000101110010 -
b1000011001111111 (
b110101011100110 0
1*
#815003
0*
#820003
b1011000010101 1
b1111100010110010 &
b1011000010101 -
b1110101100011 (
b11000000101110010 0
1*
#825003
0*
#830003
b11011110000101 1
b1110010010101001 &
b11011110000101 -
b101001011011100 (
b1011000010101 0
1*
#835003
0*
#840003
b11111101011111000 1
b10001000010000 &
b11111101011111000 -
b1101100011101000 (
b11011110000101 0
1*
#845003
0*
#850003
b10000101011010 1
b1010110011111100 &
b10000101011010 -
b111010001011110 (
b11111101011111000 0
1*
#855003
0*
#860003
b110110110011111 1
b11100111110001 &
b110110110011111 -
b11001110101110 (
b10000101011010 0
1*
#865003
0*
#870003
b1000011000110011 1
b101010100001000 &
b1000011000110011 -
b11000100101011 (
b110110110011111 0
1*
#875003
0*
#880003
b10000000010011 1
b111010111111001 &
b10000000010011 -
b1010101000011010 (
b1000011000110011 0
1*
#885003
0*
#890003
b11111000000010111 1
b101011010110111 &
b11111000000010111 -
b1001100101100000 (
b10000000010011 0
1*
#895003
0*
#900003
b10100101101111110 1
b1100101000111000 &
b10100101101111110 -
b1000000101000110 (
b11111000000010111 0
1*
#905003
0*
#910003
b11111011100001001 1
b1010001010000010 &
b11111011100001001 -
b101010010000111 (
b10100101101111110 0
1*
#915003
0*
#920003
b11110101011001111 1
b1000001000010011 &
b11110101011001111 -
b110100010111100 (
b11111011100001001 0
1*
#925003
0*
#930003
b10001010100101111 1
b1001001111001100 &
b10001010100101111 -
b1000000101100011 (
b11110101011001111 0
1*
#935003
0*
#940003
b10100011000111 1
b1111110101000011 &
b10100011000111 -
b10101110000100 (
b10001010100101111 0
1*
#945003
0*
#950003
b1100100111001101 1
b101011000101110 &
b1100100111001101 -
b111001110011111 (
b10100011000111 0
1*
#955003
0*
#960003
b101101110000011 1
b101010111000101 &
b101101110000011 -
b10110111110 (
b1100100111001101 0
1*
#965003
0*
#970003
b100110010011000 1
b1100110101010100 &
b100110010011000 -
b111111101000100 (
b101101110000011 0
1*
#975003
0*
#980003
b11110011010000101 1
b1111111001000010 &
b11110011010000101 -
b1110100001000011 (
b100110010011000 0
1*
#985003
0*
#990003
b1101111101011 1
b1100101100000001 &
b1101111101011 -
b101000011101010 (
b11110011010000101 0
1*
#995003
0*
#1000003
b1011010111000001 1
b100000001111010 &
b1011010111000001 -
b111010101000111 (
b1101111101011 0
1*
#1005003
0*
#1010003
b10111000001101 1
b101101110000 &
b10111000001101 -
b10001010011101 (
b1011010111000001 0
1*
#1015003
0*
#1020003
b11010111000100010 1
b1111001111101010 &
b11010111000100010 -
b1011101000111000 (
b10111000001101 0
1*
#1025003
0*
#1030003
b10011100011111101 1
b1011001010011101 &
b10011100011111101 -
b1000011001100000 (
b11010111000100010 0
1*
#1035003
0*
#1040003
b101100101011001 1
b11100110100 &
b101100101011001 -
b101001000100101 (
b10011100011111101 0
1*
#1045003
0*
#1050003
b10111110111011110 1
b1101010011101101 &
b10111110111011110 -
b1010100011110001 (
b101100101011001 0
1*
#1055003
0*
#1060003
b110010011000010 1
b100010010001111 &
b110010011000010 -
b10000000110011 (
b10111110111011110 0
1*
#1065003
0*
#1070003
b1001101001001101 1
b10011011010101 &
b1001101001001101 -
b111001101111000 (
b110010011000010 0
1*
#1075003
0*
#1080003
b11110011110011010 1
b1110101111100001 &
b11110011110011010 -
b1111101110111001 (
b1001101001001101 0
1*
#1085003
0*
#1090003
b111111011100001 1
b1110100101010 &
b111111011100001 -
b110000110110111 (
b11110011110011010 0
1*
#1095003
0*
#1100003
b1110101010001 1
b1011111100100110 &
b1110101010001 -
b101111000101011 (
b111111011100001 0
1*
#1105003
0*
#1110003
b11101101001011111 1
b1110111010011111 &
b11101101001011111 -
b1110101111000000 (
b1110101010001 0
1*
#1115003
0*
#1120003
b111110101100 1
b111111101110001 &
b111110101100 -
b1001000000111011 (
b11101101001011111 0
1*
#1125003
0*
#1130003
b11111000010111101 1
b1001001010010010 &
b11111000010111101 -
b101111000101011 (
b111110101100 0
1*
#1135003
0*
#1140003
b101001011110101 1
b100100101001011 &
b101001011110101 -
b100110101010 (
b11111000010111101 0
1*
#1145003
0*
#1150003
b111011111111 1
b110110001000011 &
b111011111111 -
b1010001010111100 (
b101001011110101 0
1*
#1155003
0*
#1160003
b1000111011110011 1
b110001010101101 &
b1000111011110011 -
b10110001000110 (
b111011111111 0
1*
#1165003
0*
#1170003
b11101100110 1
b1110001001001 &
b11101100110 -
b1110101100011101 (
b1000111011110011 0
1*
#1175003
0*
#1180003
b110111111111 1
b1100111111010 &
b110111111111 -
b1111010000000101 (
b11101100110 0
1*
#1185003
0*
#1190003
b11101110101101010 1
b1100000010010001 &
b11101110101101010 -
b1110011011001 (
b110111111111 0
1*
#1195003
0*
#1200003
0.
0/
03
0%
0!
0"
0#
0'
0)
b11101110101101010 0
1*
#1205003
0*
#1210003
0$
02
1*
