solution/ejercicio_1/adder-32bit.vcd
$date
	Fri May  7 10:37:05 2021
$end
$version
	Icarus Verilog
$end
$timescale
	1ps
$end
$scope module top $end
$var wire 1 ! \$1 $end
$var wire 1 " \$3 $end
$var wire 1 # \$5 $end
$var wire 1 $ \$7 $end
$var wire 1 % \$9 $end
$var wire 32 & a__data [31:0] $end
$var wire 1 ' a__valid $end
$var wire 32 ( b__data [31:0] $end
$var wire 1 ) b__valid $end
$var wire 1 * clk $end
$var wire 1 + r__ready $end
$var wire 1 , rst $end
$var wire 33 - \$11 [32:0] $end
$var reg 1 . a__ready $end
$var reg 1 / b__ready $end
$var reg 33 0 r__data [32:0] $end
$var reg 33 1 \r__data$next [32:0] $end
$var reg 1 2 r__valid $end
$var reg 1 3 \r__valid$next $end
$upscope $end
$enddefinitions $end
#0
$dumpvars
03
02
b0 1
b0 0
x/
x.
bx -
1,
z+
1*
z)
bz (
z'
bz &
x%
0$
x#
x"
x!
$end
#5000
0*
#10000
1*
#15000
0*
#20000
1.
1/
13
b101 1
1%
1!
1"
1#
0,
1'
b101 -
b1 &
1)
b100 (
1*
#25000
0*
#30000
b111 1
b10 &
b111 -
b101 (
x$
12
b101 0
1*
#35000
0*
#40000
b0 1
03
b11 &
b1001 -
b110 (
1,
b111 0
1*
#45000
0*
#50000
0.
0/
0%
0!
0"
0#
0'
0)
0,
03
0$
b0 1
02
b0 0
1*
#55000
0*
#60000
1*
#60001
1,
#65001
0*
#70001
1*
#75001
0*
#80001
b101 1
1.
1/
13
1%
1!
1"
1#
0,
1'
1)
b101 -
b10 (
1+
1*
#85001
0*
#90001
b1 1
b11111111111111111111111111111110 &
b1 -
b11 (
1$
12
b101 0
1*
#95001
0*
#100001
b111111111111111111111111111111111 1
b11 &
b111111111111111111111111111111111 -
b11111111111111111111111111111100 (
b1 0
1*
#105001
0*
#110001
b111111111111111111111111111111100 1
b11111111111111111111111111111110 &
b111111111111111111111111111111100 -
b11111111111111111111111111111110 (
b111111111111111111111111111111111 0
1*
#115001
0*
#120001
0.
0/
03
0%
0!
0"
0#
0'
0)
b111111111111111111111111111111100 0
1*
#125001
0*
#130001
0$
02
1*
#130002
b0 1
1,
#135002
0*
#140002
b0 0
1*
#145002
0*
#150002
b11111111111111111111111111111110 1
1.
1/
13
1%
1!
1"
1#
0,
1'
b1111111111111111111111111111111 &
1)
b11111111111111111111111111111110 -
b1111111111111111111111111111111 (
1*
#155002
0*
#160002
b100000000000000000000000000000000 1
b10000000000000000000000000000000 &
b100000000000000000000000000000000 -
b10000000000000000000000000000000 (
1$
b11111111111111111111111111111110 0
12
1*
#165002
0*
#170002
0.
0/
03
0%
0!
0"
0#
0'
0)
b100000000000000000000000000000000 0
1*
#175002
0*
#180002
0$
02
1*
#180003
b0 1
1,
#185003
0*
#190003
b0 0
1*
#195003
0*
#200003
b10010110000110000001111000010111 1
1.
1/
13
1%
1!
1"
1#
0,
1'
b1111001110010000010001100111001 &
1)
b10010110000110000001111000010111 -
b11100010011111111101011011110 (
1*
#205003
0*
#210003
b1011101110000111111010000001111 1
b11100101101101010011111100101 &
b1011101110000111111010000001111 -
b1000001000011010100110000101010 (
1$
12
b10010110000110000001111000010111 0
1*
#215003
0*
#220003
b10100110011110010110101011110001 1
b101000101101100110111111010001 &
b10100110011110010110101011110001 -
b1111101110000101111101100100000 (
b1011101110000111111010000001111 0
1*
#225003
0*
#230003
b111001111110001111001000010111111 1
b11111111101100000001001110010000 &
b111001111110001111001000010111111 -
b11010000000101110111110100101111 (
b10100110011110010110101011110001 0
1*
#235003
0*
#240003
b1001101010111010101110110001 1
b11101110010011110100001000101101 &
b1001101010111010101110110001 -
b11011010111000110100110000100 (
b111001111110001111001000010111111 0
1*
#245003
0*
#250003
b110101111101011101100100011001 1
b11000010100111011010110110000100 &
b110101111101011101100100011001 -
b1110011010110000010101110010101 (
b1001101010111010101110110001 0
1*
#255003
0*
#260003
b100100111111100001100010100100110 1
b10100010100110100010000010000011 &
b100100111111100001100010100100110 -
b10000101010101101010010010100011 (
b110101111101011101100100011001 0
1*
#265003
0*
#270003
b101010011100000010010101101110 1
b11010100000010111001111100101011 &
b101010011100000010010101101110 -
b1010110011001001000011001000011 (
b100100111111100001100010100100110 0
1*
#275003
0*
#280003
b10101000001101111011111111111110 1
b111100001110000011100001001111 &
b10101000001101111011111111111110 -
b1101011111111111000011110101111 (
b101010011100000010010101101110 0
1*
#285003
0*
#290003
b10111111111111011101110101101101 1
b1110110001010100111101100001101 &
b10111111111111011101110101101101 -
b1001001110100110110001001100000 (
b10101000001101111011111111111110 0
1*
#295003
0*
#300003
b100001110101010010101101111011 1
b110101010001111000110000101101 &
b100001110101010010101101111011 -
b11101100100011011001111101001110 (
b10111111111111011101110101101101 0
1*
#305003
0*
#310003
b111001001100110101011000010000010 1
b101100101001001011110001100010 &
b111001001100110101011000010000010 -
b10011100111101011111010000100000 (
b100001110101010010101101111011 0
1*
#315003
0*
#320003
b10011101001111100110001000100110 1
b111000101010111101100001110111 &
b10011101001111100110001000100110 -
b1100100100100101000100110101111 (
b111001001100110101011000010000010 0
1*
#325003
0*
#330003
b10110010100000111101100001011000 1
b1000001110110111110010010011000 &
b10110010100000111101100001011000 -
b1110000101001111111001111000000 (
b10011101001111100110001000100110 0
1*
#335003
0*
#340003
b111010110001101110101001001101001 1
b101010110111010001101101110100 &
b111010110001101110101001001101001 -
b10101011010110100011011011110101 (
b10110010100000111101100001011000 0
1*
#345003
0*
#350003
b10100111111011000100101101001001 1
b1010010101010101101001100001101 &
b10100111111011000100101101001001 -
b1010101010000010111100000111100 (
b111010110001101110101001001101001 0
1*
#355003
0*
#360003
b110000011010010111110011001011111 1
b11100011100101101000010111010110 &
b110000011010010111110011001011111 -
b10011111101101010110000010001001 (
b10100111111011000100101101001001 0
1*
#365003
0*
#370003
b110111101011010010101111010011101 1
b10001110110101101011101001001101 &
b110111101011010010101111010011101 -
b101110100100101010010001010000 (
b110000011010010111110011001011111 0
1*
#375003
0*
#380003
b101001110010101111010110001011111 1
b10010101101111010101010010110101 &
b101001110010101111010110001011111 -
b10111000100110100101011110101010 (
b110111101011010010101111010011101 0
1*
#385003
0*
#390003
b11011010100010000000011001111 1
b1000000001010100001111101110 &
b11011010100010000000011001111 -
b10011010010111011110011100001 (
b101001110010101111010110001011111 0
1*
#395003
0*
#400003
b101101001010100001010111011000011 1
b10000110100110011101101110010100 &
b101101001010100001010111011000011 -
b11100010101101101101001100101111 (
b11011010100010000000011001111 0
1*
#405003
0*
#410003
b101101000100111110111010110100111 1
b10001010101111101010101111100000 &
b101101000100111110111010110100111 -
b11011101111000001100100111000111 (
b101101001010100001010111011000011 0
1*
#415003
0*
#420003
b111111101001000001010001100001011 1
b10001010011000011110110101100010 &
b111111101001000001010001100001011 -
b1110010101111101011010110101001 (
b101101000100111110111010110100111 0
1*
#425003
0*
#430003
b111100110100101010011101100101001 1
b11000011111110001010001011101110 &
b111100110100101010011101100101001 -
b100010100111001001100000111011 (
b111111101001000001010001100001011 0
1*
#435003
0*
#440003
b100100111100010100010000011010001 1
b10001101100111101111011110000010 &
b100100111100010100010000011010001 -
b10011001111010110010100101001111 (
b111100110100101010011101100101001 0
1*
#445003
0*
#450003
b111101010110001110101111000010001 1
b11100100101111111011101000000111 &
b111101010110001110101111000010001 -
b110000001111010010000001010 (
b100100111100010100010000011010001 0
1*
#455003
0*
#460003
b1001101000001001110000100100 1
b10001011010110111011100100110 &
b1001101000001001110000100100 -
b11111000001101010010010011111110 (
b111101010110001110101111000010001 0
1*
#465003
0*
#470003
b111011000110011000010111000110011 1
b10101001010011011101110110111001 &
b111011000110011000010111000110011 -
b101111011111100101000001111010 (
b1001101000001001110000100100 0
1*
#475003
0*
#480003
b110010001110011010010000010011001 1
b11100101100101110110011010100000 &
b110010001110011010010000010011001 -
b10101100001101011011100111111001 (
b111011000110011000010111000110011 0
1*
#485003
0*
#490003
b101100000011011000000010110010000 1
b11011011101100100110110010001101 &
b101100000011011000000010110010000 -
b10000100101110011001100100000011 (
b110010001110011010010000010011001 0
1*
#495003
0*
#500003
b101111110001011100111000110001110 1
b10101000110001111010011001100101 &
b101111110001011100111000110001110 -
b11010101011001101100101100101001 (
b101100000011011000000010110010000 0
1*
#505003
0*
#510003
b110000010010111100001000000001011 1
b11101101110011111101000010000101 &
b110000010010111100001000000001011 -
b10010100100011100011111110000110 (
b101111110001011100111000110001110 0
1*
#515003
0*
#520003
b10000011100110001001010001001 1
b10011000111101001111010101001110 &
b10000011100110001001010001001 -
b1110111011111100001110100111011 (
b110000010010111100001000000001011 0
1*
#525003
0*
#530003
b10111111010110000001000100110111 1
b1100010010111101111111010010011 &
b10111111010110000001000100110111 -
b1011100111110010001001010100100 (
b10000011100110001001010001001 0
1*
#535003
0*
#540003
b10010100111001100011100110010010 1
b1011101110001111001011101001000 &
b10010100111001100011100110010010 -
b110111000111101010001001001010 (
b10111111010110000001000100110111 0
1*
#545003
0*
#550003
b101110001100111110110010001100100 1
b10100010101101011011110111101101 &
b101110001100111110110010001100100 -
b11001110111010011010011001110111 (
b10010100111001100011100110010010 0
1*
#555003
0*
#560003
b111001010110011100100101100001000 1
b11101011111011010100111110110011 &
b111001010110011100100101100001000 -
b11011110111000001111101101010101 (
b101110001100111110110010001100100 0
1*
#565003
0*
#570003
b110100000100100111000001101001000 1
b10100111100010111100001010111011 &
b110100000100100111000001101001000 -
b11111001000001111100000010001101 (
b111001010110011100100101100001000 0
1*
#575003
0*
#580003
b111000111111000011110110100100 1
b11101000101100010010011010101000 &
b111000111111000011110110100100 -
b1010000010010110001011011111100 (
b110100000100100111000001101001000 0
1*
#585003
0*
#590003
b1010110001100011101001111010100 1
b11011011010100000011010110110000 &
b1010110001100011101001111010100 -
b1111010111000011001111000100100 (
b111000111111000011110110100100 0
1*
#595003
0*
#600003
b11101110001110100010000011110110 1
b1111001111011000100001010001000 &
b11101110001110100010000011110110 -
b1110100010011011101111001101110 (
b1010110001100011101001111010100 0
1*
#605003
0*
#610003
b110110000011111101111101011011100 1
b11000000001011110001100000010010 &
b110110000011111101111101011011100 -
b11110000010011111110001011001010 (
b11101110001110100010000011110110 0
1*
#615003
0*
#620003
b110101110000000011111111000001110 1
b10000011110011011011000000111 &
b110101110000000011111111000001110 -
b10011101100010000100100000000111 (
b110110000011111101111101011011100 0
1*
#625003
0*
#630003
b111111011110110111100010110000000 1
b10111011011111101011111010000011 &
b111111011110110111100010110000000 -
b1000000010111010000011011111101 (
b110101110000000011111111000001110 0
1*
#635003
0*
#640003
b1011111100100000010000011110 1
b10101011010000001000110100101001 &
b1011111100100000010000011110 -
b1100000101100010111011011110101 (
b111111011110110111100010110000000 0
1*
#645003
0*
#650003
b10011011111111100011010000110011 1
b111000101011111000000010000101 &
b10011011111111100011010000110011 -
b1100011010011101011001110101110 (
b1011111100100000010000011110 0
1*
#655003
0*
#660003
b110001110100111101101011111101001 1
b111010000010100111001000110 &
b110001110100111101101011111101001 -
b10000111010111011000100110100011 (
b10011011111111100011010000110011 0
1*
#665003
0*
#670003
b111110011100000111010000000011001 1
b10010010110000010011000111011011 &
b111110011100000111010000000011001 -
b1100000110000100110111000111110 (
b110001110100111101101011111101001 0
1*
#675003
0*
#680003
b110100101010101100001111111010101 1
b10000100111101001110101111101010 &
b110100101010101100001111111010101 -
b100000011000010011001111101011 (
b111110011100000111010000000011001 0
1*
#685003
0*
#690003
b110111110111110110011010010100111 1
b100011111110111100011111110001 &
b110111110111110110011010010100111 -
b10011010111111110110110010110110 (
b110100101010101100001111111010101 0
1*
#695003
0*
#700003
b111110101010100100110011100100001 1
b10011010100000111110010100111001 &
b111110101010100100110011100100001 -
b1011010110011101000000111101000 (
b110111110111110110011010010100111 0
1*
#705003
0*
#710003
b11100101011100010111010100011 1
b101100111101000010110011010001 &
b11100101011100010111010100011 -
b11101111101110100000000111010010 (
b111110101010100100110011100100001 0
1*
#715003
0*
#720003
b1111100101010001111111101110011 1
b101010111010010111010011010001 &
b1111100101010001111111101110011 -
b1010001101111111000101010100010 (
b11100101011100010111010100011 0
1*
#725003
0*
#730003
b10000010110111011010100111000000 1
b1111111100000111000000100111001 &
b10000010110111011010100111000000 -
b11010110100010100010000111 (
b1111100101010001111111101110011 0
1*
#735003
0*
#740003
b1011011110011101010001111000 1
b10101000011111101001000011100000 &
b1011011110011101010001111000 -
b1100010111110110100001110011000 (
b10000010110111011010100111000000 0
1*
#745003
0*
#750003
b111101011010000101100101010110001 1
b1100111010110100011101011000000 &
b111101011010000101100101010110001 -
b10000011111010001000111111110001 (
b1011011110011101010001111000 0
1*
#755003
0*
#760003
b100101111100100111111001000100000 1
b10101011011110011010111011001010 &
b100101111100100111111001000100000 -
b10000100000110100100001101010110 (
b111101011010000101100101010110001 0
1*
#765003
0*
#770003
b110001101000000111111011011010001 1
b10010000010011110001101111011000 &
b110001101000000111111011011010001 -
b11111100101101001101101011111001 (
b100101111100100111111001000100000 0
1*
#775003
0*
#780003
b101011010010111110101001001 1
b10101001110010101011010011100101 &
b101011010010111110101001001 -
b1011011100111101100100001100100 (
b110001101000000111111011011010001 0
1*
#785003
0*
#790003
b110011011000000111011111111010101 1
b10011100010101101001010010100111 &
b110011011000000111011111111010101 -
b11111110101011010010101100101110 (
b101011010010111110101001001 0
1*
#795003
0*
#800003
b1101010111001110100110001101111 1
b11110100110010110110010110110011 &
b1101010111001110100110001101111 -
b1110110000110111110011010111100 (
b110011011000000111011111111010101 0
1*
#805003
0*
#810003
b110000001011100110110101010011100 1
b11111010111100111110010111100001 &
b110000001011100110110101010011100 -
b10000110011111111000010010111011 (
b1101010111001110100110001101111 0
1*
#815003
0*
#820003
b10110000101010101101011001110 1
b11111000101100100010111001001101 &
b10110000101010101101011001110 -
b11101011000110010110010000001 (
b110000001011100110110101010011100 0
1*
#825003
0*
#830003
b110111100001011001100110100011 1
b11100100101010010011100100011001 &
b110111100001011001100110100011 -
b1010010110111000110000010001010 (
b10110000101010101101011001110 0
1*
#835003
0*
#840003
b111111010111110000011110110011111 1
b100010000100000000100100101001 &
b111111010111110000011110110011111 -
b11011000111010000011010001110110 (
b110111100001011001100110100011 0
1*
#845003
0*
#850003
b100001010110110101010101101001 1
b10101100111111001011001001110011 &
b100001010110110101010101101001 -
b1110100010111101010001011110110 (
b111111010111110000011110110011111 0
1*
#855003
0*
#860003
b1101101101000000011000110000010 1
b111001111100010110110100111010 &
b1101101101000000011000110000010 -
b110011101011101100010001001000 (
b100001010110110101010101101001 0
1*
#865003
0*
#870003
b10000110001100110111001011101101 1
b1010101000010000110111100111010 &
b10000110001100110111001011101101 -
b110001001010110000001110110011 (
b1101101101000000011000110000010 0
1*
#875003
0*
#880003
b100000000100110111011111100100 1
b1110101111110010001011010100101 &
b100000000100110111011111100100 -
b10101010000110100110000100111111 (
b10000110001100110111001011101101 0
1*
#885003
0*
#890003
b111110000000110000100010100111011 1
b1010110101101111001001010010010 &
b111110000000110000100010100111011 -
b10011001011000001011001010101001 (
b100000000100110111011111100100 0
1*
#895003
0*
#900003
b101001011011111100001010101010010 1
b11001010001110000000100111011010 &
b101001011011111100001010101010010 -
b10000001010001100000101101111000 (
b111110000000110000100010100111011 0
1*
#905003
0*
#910003
b111110111000010011101011001100100 1
b10100010100000100001100011010011 &
b111110111000010011101011001100100 -
b1010100100001111011110110010001 (
b101001011011111100001010101010010 0
1*
#915003
0*
#920003
b111101010110011111111000110101100 1
b10000010000100111100011101011101 &
b111101010110011111111000110101100 -
b1101000101111000010101001001111 (
b111110111000010011101011001100100 0
1*
#925003
0*
#930003
b100010101001100001000000100100111 1
b10010011110011001111111111101000 &
b100010101001100001000000100100111 -
b10000001011000111000000100111111 (
b111101010110011111111000110101100 0
1*
#935003
0*
#940003
b101000110001111001010111101101 1
b11111101010000110010100010110110 &
b101000110001111001010111101101 -
b101011100001000110110100110111 (
b100010101001100001000000100100111 0
1*
#945003
0*
#950003
b11001001110011011011001111100001 1
b1010110001011100110100000101001 &
b11001001110011011011001111100001 -
b1110011100111110100101110111000 (
b101000110001111001010111101101 0
1*
#955003
0*
#960003
b1011011100001000100011111010100 1
b1010101110001011100101100110110 &
b1011011100001000100011111010100 -
b101101111100111110010011110 (
b11001001110011011011001111100001 0
1*
#965003
0*
#970003
b1001100100110001111101010010011 1
b11001101010101000011010100010011 &
b1001100100110001111101010010011 -
b1111111010001001100010110000000 (
b1011011100001000100011111010100 0
1*
#975003
0*
#980003
b111100110100001100100011100000111 1
b11111110010000101101110011111110 &
b111100110100001100100011100000111 -
b11101000010000110110101000001001 (
b1001100100110001111101010010011 0
1*
#985003
0*
#990003
b11011111011001010001100111110 1
b11001011000000011100111111100111 &
b11011111011001010001100111110 -
b1010000111010101101001101010111 (
b111100110100001100100011100000111 0
1*
#995003
0*
#1000003
b10110101110000100000001100001111 1
b1000000011110101101101101110110 &
b10110101110000100000001100001111 -
b1110101010001110010011110011001 (
b11011111011001010001100111110 0
1*
#1005003
0*
#1010003
b101110000011011110100010111001 1
b1011011100000100100000011100 &
b101110000011011110100010111001 -
b100010100111011010000010011101 (
b10110101110000100000001100001111 0
1*
#1015003
0*
#1020003
b110101110001000100110101000010101 1
b11110011111010100001111000111011 &
b110101110001000100110101000010101 -
b10111010001110000100101111011010 (
b101110000011011110100010111001 0
1*
#1025003
0*
#1030003
b100111000111111010111101111110000 1
b10110010100111010110110011010101 &
b100111000111111010111101111110000 -
b10000110011000000000111100011011 (
b110101110001000100110101000010101 0
1*
#1035003
0*
#1040003
b1011001010110011111010100010100 1
b111001101000100100010010111 &
b1011001010110011111010100010100 -
b1010010001001011010110001111101 (
b100111000111111010111101111110000 0
1*
#1045003
0*
#1050003
b101111101110111111110010001110001 1
b11010100111011011110100100111011 &
b101111101110111111110010001110001 -
b10101000111100011111101100110110 (
b1011001010110011111010100010100 0
1*
#1055003
0*
#1060003
b1100100110000111001010100000011 1
b1000100100011111100110100010100 &
b1100100110000111001010100000011 -
b100000001100111100011111101111 (
b101111101110111111110010001110001 0
1*
#1065003
0*
#1070003
b10011010010011011100101000111101 1
b100110110101011000001110111000 &
b10011010010011011100101000111101 -
b1110011011110000100011010000101 (
b1100100110000111001010100000011 0
1*
#1075003
0*
#1080003
b111100111100110101110110110110001 1
b11101011111000011010000110100110 &
b111100111100110101110110110110001 -
b11111011101110010100110000001011 (
b10011010010011011100101000111101 0
1*
#1085003
0*
#1090003
b1111110111000011100000000010011 1
b11101001010101010010010100000 &
b1111110111000011100000000010011 -
b1100001101101110001101101110011 (
b111100111100110101110110110110001 0
1*
#1095003
0*
#1100003
b11101010100011000011110000011 1
b10111111001001101000001001111010 &
b11101010100011000011110000011 -
b1011110001010110000010100001001 (
b1111110111000011100000000010011 0
1*
#1105003
0*
#1110003
b111011010011000000000110100101111 1
b11101110100111110101000000001001 &
b111011010011000000000110100101111 -
b11101011110000001011110100100110 (
b11101010100011000011110000011 0
1*
#1115003
0*
#1120003
b1111101011001001100000110101 1
b1111111011100010100000000000010 &
b1111101011001001100000110101 -
b10010000001110110101100000110011 (
b111011010011000000000110100101111 0
1*
#1125003
0*
#1130003
b111110000101111011010100101100011 1
b10010010100100101001100001101011 &
b111110000101111011010100101100011 -
b1011110001010110001000011111000 (
b1111101011001001100000110101 0
1*
#1135003
0*
#1140003
b1010010111101011000010001110110 1
b1001001010010110010011000010011 &
b1010010111101011000010001110110 -
b1001101010100101111001100011 (
b111110000101111011010100101100011 0
1*
#1145003
0*
#1150003
b1110111111111011110010011101 1
b1101100010000110011110000001101 &
b1110111111111011110010011101 -
b10100010101111001000000010010000 (
b1010010111101011000010001110110 0
1*
#1155003
0*
#1160003
b10001110111100111101101100001101 1
b1100010101011011100111110011101 &
b10001110111100111101101100001101 -
b101100010001100000101101110000 (
b1110111111111011110010011101 0
1*
#1165003
0*
#1170003
b111011001110110111011011101 1
b11100010010010110111011110111 &
b111011001110110111011011101 -
b11101011000111011111111111100110 (
b10001110111100111101101100001101 0
1*
#1175003
0*
#1180003
b1101111111111101100110100010 1
b11001111110101000111111010011 &
b1101111111111101100110100010 -
b11110100000001010100100111001111 (
b111011001110110111011011101 0
1*
#1185003
0*
#1190003
b111011101011010101011010101101101 1
b11000000100100011010101011110111 &
b111011101011010101011010101101101 -
b11100110110010000101001110110 (
b1101111111111101100110100010 0
1*
#1195003
0*
#1200003
0.
0/
03
0%
0!
0"
0#
0'
0)
b111011101011010101011010101101101 0
1*
#1205003
0*
#1210003
0$
02
1*
