solution/ejercicio_1/adder-4bit.vcd
$date
	Mon May 10 11:19:01 2021
$end
$version
	Icarus Verilog
$end
$timescale
	1ps
$end
$scope module top $end
$var wire 1 ! \$1 $end
$var wire 1 " \$11 $end
$var wire 1 # \$13 $end
$var wire 1 $ \$17 $end
$var wire 1 % \$19 $end
$var wire 1 & \$3 $end
$var wire 1 ' \$5 $end
$var wire 1 ( \$7 $end
$var wire 1 ) \$9 $end
$var wire 4 * a__data [3:0] $end
$var wire 1 + a__valid $end
$var wire 4 , b__data [3:0] $end
$var wire 1 - b__valid $end
$var wire 1 . clk $end
$var wire 1 / r__ready $end
$var wire 1 0 rst $end
$var wire 5 1 \$15 [4:0] $end
$var reg 1 2 a__ready $end
$var reg 1 3 b__ready $end
$var reg 5 4 r__data [4:0] $end
$var reg 5 5 \r__data$next [4:0] $end
$var reg 1 6 r__valid $end
$var reg 1 7 \r__valid$next $end
$var reg 5 8 r_reg [4:0] $end
$upscope $end
$enddefinitions $end
#0
$dumpvars
b110 8
17
06
b0 5
b0 4
03
02
b110 1
00
0/
1.
1-
b101 ,
1+
b1 *
1)
0(
1'
0&
0%
1$
1#
0"
1!
$end
#5000
0.
#10000
16
1.
#15000
0.
#20000
07
10
1.
#25000
0.
#30000
00
17
06
1.
#35000
0.
#40000
16
1.
#40001
07
10
#45001
0.
#50001
07
06
1.
#55001
0.
#60001
12
13
b101 5
17
b101 8
1%
1&
1(
00
b11 *
b101 1
b10 ,
1/
1.
#65001
0.
#70001
b1 5
b1 8
b1110 *
b1 1
b11 ,
1"
16
b101 4
1.
#75001
0.
#80001
b11111 5
b11111 8
b11 *
b11111 1
b1100 ,
b1 4
1.
#85001
0.
#90001
b11100 5
b11100 8
b1110 *
b11100 1
b1110 ,
b11111 4
1.
#95001
0.
#100001
02
03
07
b0 8
0%
0&
0(
0)
0#
0$
0!
0'
0+
0-
b11100 4
1.
#105001
0.
#110001
0"
06
1.
#110002
b0 5
10
#115002
0.
#120002
b0 4
1.
#125002
0.
#130002
b1110 5
12
13
b1110 8
1%
1&
1(
17
1)
1#
1$
1!
1'
00
1+
b111 *
1-
b1110 1
b111 ,
1.
#135002
0.
#140002
b10000 5
b10000 8
b1000 *
b10000 1
b1000 ,
1"
b1110 4
16
1.
#145002
0.
#150002
02
03
07
b0 8
0%
0&
0(
0)
0#
0$
0!
0'
0+
0-
b10000 4
1.
#155002
0.
#160002
0"
06
1.
#160003
b0 5
10
#165003
0.
#170003
b0 4
1.
#175003
0.
#180003
b110 5
12
13
b110 8
1%
1&
1(
17
1)
1#
1$
1!
1'
00
1+
b11 *
1-
b110 1
b11 ,
1.
#185003
0.
#190003
b11100 5
b11100 8
b100 *
b11100 1
b1000 ,
1"
16
b110 4
1.
#195003
0.
#200003
b10110 5
b10110 8
b1001 *
b10110 1
b1101 ,
b11100 4
1.
#205003
0.
#210003
b11011 5
b11011 8
b11011 1
b1110 *
b10110 4
1.
#215003
0.
#220003
b10011 5
b10011 8
b1011 *
b10011 1
b1000 ,
b11011 4
1.
#225003
0.
#230003
b11101 5
b11101 8
b1110 *
b11101 1
b1111 ,
b10011 4
1.
#235003
0.
#240003
b11100 5
b11100 8
b1111 *
b11100 1
b1101 ,
b11101 4
1.
#245003
0.
#250003
b11101 5
b11101 8
b1101 *
b11101 1
b0 ,
b11100 4
1.
#255003
0.
#260003
b10000 5
b10000 8
b1000 *
b10000 1
b1000 ,
b11101 4
1.
#265003
0.
#270003
b10011 5
b10011 8
b10011 1
b1011 *
b10000 4
1.
#275003
0.
#280003
b10011 8
b1001 *
b10011 1
b1010 ,
b10011 4
1.
#285003
0.
#290003
b100 5
b100 8
b10 *
b100 1
b10 ,
1.
#295003
0.
#300003
b11100 5
b11100 8
b1110 *
b11100 1
b1110 ,
b100 4
1.
#305003
0.
#310003
b1010 5
b1010 8
b100 *
b1010 1
b110 ,
b11100 4
1.
#315003
0.
#320003
b11011 5
b11011 8
b1101 *
b11011 1
b1110 ,
b1010 4
1.
#325003
0.
#330003
b11111 5
b11111 8
b10 *
b11111 1
b1101 ,
b11011 4
1.
#335003
0.
#340003
b10001 5
b10001 8
b1001 *
b10001 1
b1000 ,
b11111 4
1.
#345003
0.
#350003
b11011 5
b11011 8
b1011 *
b11011 1
b0 ,
b10001 4
1.
#355003
0.
#360003
b100 5
b100 8
b1111 *
b100 1
b101 ,
b11011 4
1.
#365003
0.
#370003
b11100 5
b11100 8
b11100 1
b1101 ,
b100 4
1.
#375003
0.
#380003
b11111 5
b11111 8
b1 *
b11111 1
b1110 ,
b11100 4
1.
#385003
0.
#390003
b10100 5
b10100 8
b1000 *
b10100 1
b1100 ,
b11111 4
1.
#395003
0.
#400003
b11000 5
b11000 8
b0 *
b11000 1
b1000 ,
b10100 4
1.
#405003
0.
#410003
b10111 5
b10111 8
b1011 *
b10111 1
b1100 ,
b11000 4
1.
#415003
0.
#420003
b11 5
b11 8
b100 *
b11 1
b1111 ,
b10111 4
1.
#425003
0.
#430003
b111 5
b111 8
b1 *
b111 1
b110 ,
b11 4
1.
#435003
0.
#440003
b11101 5
b11101 8
b1001 *
b11101 1
b100 ,
b111 4
1.
#445003
0.
#450003
b1 5
b1 8
b0 *
b1 1
b1 ,
b11101 4
1.
#455003
0.
#460003
b11111 5
b11111 8
b100 *
b11111 1
b1011 ,
b1 4
1.
#465003
0.
#470003
b11110 5
b11110 8
b1010 *
b11110 1
b100 ,
b11111 4
1.
#475003
0.
#480003
b11001 5
b11001 8
b1110 *
b11001 1
b1011 ,
b11110 4
1.
#485003
0.
#490003
b11101 5
b11101 8
b1100 *
b11101 1
b1 ,
b11001 4
1.
#495003
0.
#500003
b1000 5
b1000 8
b11 *
b1000 1
b101 ,
b11101 4
1.
#505003
0.
#510003
b1001 5
b1001 8
b1001 1
b100 *
b1000 4
1.
#515003
0.
#520003
b10101 5
b10101 8
b1000 *
b10101 1
b1101 ,
b1001 4
1.
#525003
0.
#530003
b10111 5
b10111 8
b1110 *
b10111 1
b1001 ,
b10101 4
1.
#535003
0.
#540003
b11110 5
b11110 8
b1 *
b11110 1
b1101 ,
b10111 4
1.
#545003
0.
#550003
b110 5
b110 8
b100 *
b110 1
b10 ,
b11110 4
1.
#555003
0.
#560003
b11001 5
b11001 8
b1010 *
b11001 1
b1111 ,
b110 4
1.
#565003
0.
#570003
b11001 8
b0 *
b11001 1
b1001 ,
b11001 4
1.
#575003
0.
#580003
b11001 8
b1001 *
b11001 1
b0 ,
1.
#585003
0.
#590003
b100 5
b100 8
b11 *
b100 1
b1 ,
1.
#595003
0.
#600003
b10111 5
b10111 8
b1001 *
b10111 1
b1110 ,
b100 4
1.
#605003
0.
#610003
b101 5
b101 8
b0 *
b101 1
b101 ,
b10111 4
1.
#615003
0.
#620003
b1001 5
b1001 8
b11 *
b1001 1
b110 ,
b101 4
1.
#625003
0.
#630003
b100 5
b100 8
b100 1
b1110 *
b1001 4
1.
#635003
0.
#640003
b11110 5
b11110 8
b0 *
b11110 1
b1110 ,
b100 4
1.
#645003
0.
#650003
b10011 5
b10011 8
b1001 *
b10011 1
b1010 ,
b11110 4
1.
#655003
0.
#660003
b10011 8
b1000 *
b10011 1
b1011 ,
b10011 4
1.
#665003
0.
#670003
b1001 5
b1001 8
b100 *
b1001 1
b101 ,
1.
#675003
0.
#680003
b11111 5
b11111 8
b1001 *
b11111 1
b110 ,
b1001 4
1.
#685003
0.
#690003
b11110 5
b11110 8
b11 *
b11110 1
b1011 ,
b11111 4
1.
#695003
0.
#700003
b0 5
b0 8
b1 *
b0 1
b1111 ,
b11110 4
1.
#705003
0.
#710003
b10111 5
b10111 8
b1001 *
b10111 1
b1110 ,
b0 4
1.
#715003
0.
#720003
b11001 5
b11001 8
b1 *
b11001 1
b1000 ,
b10111 4
1.
#725003
0.
#730003
b11010 5
b11010 8
b1001 *
b11010 1
b1 ,
b11001 4
1.
#735003
0.
#740003
b11101 5
b11101 8
b1110 *
b11101 1
b1111 ,
b11010 4
1.
#745003
0.
#750003
b11100 5
b11100 8
b10 *
b11100 1
b1010 ,
b11101 4
1.
#755003
0.
#760003
b1000 5
b1000 8
b1000 1
b110 ,
b11100 4
1.
#765003
0.
#770003
b1 5
b1 8
b1 1
b1111 ,
b1000 4
1.
#775003
0.
#780003
b10111 5
b10111 8
b10111 1
b1000 *
b1 4
1.
#785003
0.
#790003
b11010 5
b11010 8
b1010 *
b11010 1
b0 ,
b10111 4
1.
#795003
0.
#800003
b11111 5
b11111 8
b110 *
b11111 1
b1001 ,
b11010 4
1.
#805003
0.
#810003
b111 5
b111 8
b10 *
b111 1
b101 ,
b11111 4
1.
#815003
0.
#820003
b10 5
b10 8
b1110 *
b10 1
b100 ,
b111 4
1.
#825003
0.
#830003
b10011 5
b10011 8
b1011 *
b10011 1
b1000 ,
b10 4
1.
#835003
0.
#840003
b1 5
b1 8
b1111 *
b1 1
b10 ,
b10011 4
1.
#845003
0.
#850003
b11111 5
b11111 8
b1011 *
b11111 1
b100 ,
b1 4
1.
#855003
0.
#860003
b11001 5
b11001 8
b1101 *
b11001 1
b1100 ,
b11111 4
1.
#865003
0.
#870003
b11 5
b11 8
b1 *
b11 1
b10 ,
b11001 4
1.
#875003
0.
#880003
b10111 5
b10111 8
b1100 *
b10111 1
b1011 ,
b11 4
1.
#885003
0.
#890003
b100 5
b100 8
b101 *
b100 1
b1111 ,
b10111 4
1.
#895003
0.
#900003
b11101 5
b11101 8
b1111 *
b11101 1
b1110 ,
b100 4
1.
#905003
0.
#910003
b0 5
b0 8
b1100 *
b0 1
b100 ,
b11101 4
1.
#915003
0.
#920003
b10110 5
b10110 8
b1010 *
b10110 1
b1100 ,
b0 4
1.
#925003
0.
#930003
b10111 5
b10111 8
b1110 *
b10111 1
b1001 ,
b10110 4
1.
#935003
0.
#940003
b11110 5
b11110 8
b110 *
b11110 1
b1000 ,
b10111 4
1.
#945003
0.
#950003
b11011 5
b11011 8
b1101 *
b11011 1
b1110 ,
b11110 4
1.
#955003
0.
#960003
b11100 5
b11100 8
b1011 *
b11100 1
b1 ,
b11011 4
1.
#965003
0.
#970003
b10110 5
b10110 8
b1001 *
b10110 1
b1101 ,
b11100 4
1.
#975003
0.
#980003
b11 5
b11 8
b100 *
b11 1
b1111 ,
b10110 4
1.
#985003
0.
#990003
b100 5
b100 8
b11 *
b100 1
b1 ,
b11 4
1.
#995003
0.
#1000003
b11 5
b11 8
b11 1
b10 *
b100 4
1.
#1005003
0.
#1010003
b11011 5
b11011 8
b1000 *
b11011 1
b11 ,
b11 4
1.
#1015003
0.
#1020003
b11 5
b11 8
b11 1
b0 *
b11011 4
1.
#1025003
0.
#1030003
b10 5
b10 8
b101 *
b10 1
b1101 ,
b11 4
1.
#1035003
0.
#1040003
b100 5
b100 8
b0 *
b100 1
b100 ,
b10 4
1.
#1045003
0.
#1050003
b1 5
b1 8
b1111 *
b1 1
b10 ,
b100 4
1.
#1055003
0.
#1060003
b0 5
b0 8
b1010 *
b0 1
b110 ,
b1 4
1.
#1065003
0.
#1070003
b11110 5
b11110 8
b11110 1
b1000 *
b0 4
1.
#1075003
0.
#1080003
b100 5
b100 8
b0 *
b100 1
b100 ,
b11110 4
1.
#1085003
0.
#1090003
b10011 5
b10011 8
b1001 *
b10011 1
b1010 ,
b100 4
1.
#1095003
0.
#1100003
b11 5
b11 8
b1 *
b11 1
b10 ,
b10011 4
1.
#1105003
0.
#1110003
b11 8
b110 *
b11 1
b1101 ,
b11 4
1.
#1115003
0.
#1120003
b0 5
b0 8
b10 *
b0 1
b1110 ,
1.
#1125003
0.
#1130003
b11111 5
b11111 8
b1110 *
b11111 1
b1 ,
b0 4
1.
#1135003
0.
#1140003
b0 5
b0 8
b10 *
b0 1
b1110 ,
b11111 4
1.
#1145003
0.
#1150003
b10111 5
b10111 8
b1100 *
b10111 1
b1011 ,
b0 4
1.
#1155003
0.
#1160003
b10101 5
b10101 8
b10101 1
b1010 *
b10111 4
1.
#1165003
0.
#1170003
b11000 5
b11000 8
b1001 *
b11000 1
b1111 ,
b10101 4
1.
#1175003
0.
#1180003
02
03
07
b0 8
0%
0&
0(
0)
0#
0$
0!
0'
0+
0-
b11000 4
1.
#1185003
0.
#1190003
0"
06
1.
#1190004
b0 5
10
#1195004
0.
#1200004
b0 4
1.
#1205004
0.
#1210004
00
1+
b10 1
b11 *
1.
#1215004
0.
#1220004
1.
#1225004
0.
#1230004
1.
#1235004
0.
#1240004
1.
#1245004
0.
#1250004
1.
#1255004
0.
#1260004
1.
#1265004
0.
#1270004
1.
#1275004
0.
#1280004
1.
#1285004
0.
#1290004
1.
#1295004
0.
#1300004
1.
#1305004
0.
#1310004
b101 5
12
13
17
b101 8
1%
1&
1(
1)
1#
1$
1!
1'
1-
b101 1
b10 ,
1.
#1315004
0.
#1320004
b1 5
b1 8
b1110 *
b1 1
b11 ,
1"
b101 4
16
1.
#1325004
0.
#1330004
b11111 5
b11111 8
b11 *
b11111 1
b1100 ,
b1 4
1.
#1335004
0.
#1340004
b11100 5
b11100 8
b1110 *
b11100 1
b1110 ,
b11111 4
1.
#1345004
0.
#1350004
02
03
07
b0 8
0%
0&
0(
0)
0#
0$
0!
0'
0+
0-
b11100 4
1.
#1355004
0.
#1360004
0"
06
1.
#1360005
b0 5
10
#1365005
0.
#1370005
b0 4
1.
#1375005
0.
#1380005
b101 5
12
13
b101 8
1%
1&
1(
17
1)
1#
1$
1!
1'
00
1+
b11 *
1-
b101 1
b10 ,
1.
#1385005
0.
#1390005
b1 5
b1 8
b1110 *
b1 1
b11 ,
1"
16
b101 4
1.
#1395005
0.
#1400005
02
03
b11111 8
0"
0%
0&
0(
b11 *
b11111 1
b1100 ,
0/
b1 4
1.
#1405005
0.
#1410005
1.
#1415005
0.
#1420005
b11111 5
12
13
1"
1%
1&
1(
1/
1.
#1425005
0.
#1430005
02
03
b11100 8
0"
0%
0&
0(
b1110 *
b11100 1
b1110 ,
0/
b11111 4
1.
#1435005
0.
#1440005
1.
#1445005
0.
#1450005
b11100 5
12
13
1"
1%
1&
1(
1/
1.
#1455005
0.
#1460005
b0 8
02
03
0)
0#
0$
0!
0'
0"
0%
0&
0(
0+
0-
0/
b11100 4
1.
#1465005
0.
#1470005
1.
#1475005
0.
#1480005
07
1"
1/
1.
#1485005
0.
#1490005
0/
0"
06
1.
